ly6c:cd3e:cd11c:cd45:cd11b:cd4:ly6g:f480:cd49b:cd8:b220,ly6c,cd3e,cd11c,cd45,cd11b,cd4,ly6g,f480,cd49b,cd8,b220,cell_type,Lineage, count,Landmark
0:0:0:1:0:0:0:0:0:0:1,0,0,0,1,0,0,0,0,0,0,1,B,Lymphoid,522878,Y
0:0:0:1:0:1:0:0:0:1:0,0,0,0,1,0,1,0,0,0,1,0,DPT,Lymphoid,416745,Y
0:1:0:1:0:1:0:0:0:0:0,0,1,0,1,0,1,0,0,0,0,0,CD4T,Lymphoid,172392,Y
0:1:0:1:0:0:0:0:0:1:0,0,1,0,1,0,0,0,0,0,1,0,CD8T,Lymphoid,141336,Y
1:0:0:1:1:0:1:1:0:0:0,1,0,0,1,1,0,1,1,0,0,0,F480PMN,Myeloid,79000,
1:0:0:1:1:0:0:1:0:0:0,1,0,0,1,1,0,0,1,0,0,0,Mono-Mac,Myeloid,60893,Y
1:1:0:1:0:0:0:0:0:1:0,1,1,0,1,0,0,0,0,0,1,0,Ly6CCD8T,Lymphoid,49143,
0:1:0:1:0:0:0:0:0:0:0,0,1,0,1,0,0,0,0,0,0,0,DNT,Lymphoid,40058,Y
1:0:0:1:1:0:1:0:0:0:0,1,0,0,1,1,0,1,0,0,0,0,PMN,Myeloid,37537,Y
0:0:0:1:0:0:0:0:0:1:0,0,0,0,1,0,0,0,0,0,1,0,CD3enegCD8T,Lymphoid,34154,
0:0:0:1:0:0:0:0:0:0:0,0,0,0,1,0,0,0,0,0,0,0,Precursor,Other,33741,Y
1:1:0:1:0:1:0:0:0:0:0,1,1,0,1,0,1,0,0,0,0,0,Ly6CCD4T,Lymphoid,30508,
0:0:0:0:0:0:0:0:0:0:0,0,0,0,0,0,0,0,0,0,0,0,Non-immune,Other,29233,Y
1:0:0:0:1:0:1:1:0:0:0,1,0,0,0,1,0,1,1,0,0,0,CD45negF480PMN,Myeloid,27031,
0:0:0:0:0:0:0:0:0:0:1,0,0,0,0,0,0,0,0,0,0,1,CD45negB,Lymphoid,24042,
0:1:0:1:0:1:0:0:0:1:0,0,1,0,1,0,1,0,0,0,1,0,CD3eDPT,Lymphoid,23603,
0:0:0:1:0:0:0:1:0:0:1,0,0,0,1,0,0,0,1,0,0,1,F480B,Lymphoid,20141,
0:0:0:1:0:0:0:0:1:0:1,0,0,0,1,0,0,0,0,1,0,1,B220NK,Lymphoid,18854,
1:0:0:0:1:0:0:1:0:0:0,1,0,0,0,1,0,0,1,0,0,0,CD45negMono-Mac,Myeloid,17442,
1:1:0:1:0:0:0:0:1:1:0,1,1,0,1,0,0,0,0,1,1,0,Ly6CCD49bCD8T,Lymphoid,15177,
1:0:0:0:1:0:1:0:0:0:0,1,0,0,0,1,0,1,0,0,0,0,CD45negPMN,Myeloid,14120,
0:0:0:0:0:1:0:0:0:1:0,0,0,0,0,0,1,0,0,0,1,0,CD45negDPT,Lymphoid,13379,
0:0:0:1:1:0:0:1:0:0:0,0,0,0,1,1,0,0,1,0,0,0,Ly6CnegMono-Mac,Myeloid,11314,
0:0:0:1:1:0:0:0:1:0:0,0,0,0,1,1,0,0,0,1,0,0,NK,Lymphoid,8896,Y
1:0:0:1:1:0:0:0:0:0:0,1,0,0,1,1,0,0,0,0,0,0,F480negMono-Mac,Myeloid,8634,
1:0:0:1:0:0:0:0:0:0:1,1,0,0,1,0,0,0,0,0,0,1,Ly6CB,Lymphoid,8486,
0:0:0:0:0:0:0:1:0:0:0,0,0,0,0,0,0,0,1,0,0,0,CD45negCD11bnegLy6CnegMono-Mac,Myeloid,7383,
0:1:0:1:0:1:0:0:1:0:0,0,1,0,1,0,1,0,0,1,0,0,CD49bCD4T,Lymphoid,7313,
1:1:0:1:0:0:0:0:0:0:0,1,1,0,1,0,0,0,0,0,0,0,Ly6CDNT,Lymphoid,6980,
0:0:0:1:1:0:0:0:0:0:1,0,0,0,1,1,0,0,0,0,0,1,CD11bB,Lymphoid,6448,
0:0:0:1:0:0:0:0:0:1:1,0,0,0,1,0,0,0,0,0,1,1,CD8B,Lymphoid,5592,
1:0:0:1:1:0:1:0:1:0:0,1,0,0,1,1,0,1,0,1,0,0,CD49bPMN,Myeloid,5577,
0:0:0:1:0:1:0:0:0:0:0,0,0,0,1,0,1,0,0,0,0,0,CD3enegCD4T,Lymphoid,5422,
0:0:0:1:1:0:0:1:1:0:0,0,0,0,1,1,0,0,1,1,0,0,Ly6CnegCD49bMono-Mac,Myeloid,5257,
0:1:0:1:0:0:0:0:0:1:1,0,1,0,1,0,0,0,0,0,1,1,B220CD8T,Lymphoid,5217,
0:0:0:1:0:0:0:0:1:0:0,0,0,0,1,0,0,0,0,1,0,0,CD11bnegNK,Lymphoid,5178,
0:0:0:1:1:0:1:1:0:0:0,0,0,0,1,1,0,1,1,0,0,0,Ly6CnegF480PMN,Myeloid,5093,
1:0:0:1:1:0:0:1:1:0:0,1,0,0,1,1,0,0,1,1,0,0,CD49bMono-Mac,Myeloid,4915,
1:0:0:1:0:0:0:0:0:0:0,1,0,0,1,0,0,0,0,0,0,0,CD11bnegF480negMono-Mac,Myeloid,4588,
0:0:0:1:0:0:0:1:0:0:0,0,0,0,1,0,0,0,1,0,0,0,CD11bnegLy6CnegMono-Mac,Myeloid,4530,
1:0:0:1:1:0:0:0:1:0:0,1,0,0,1,1,0,0,0,1,0,0,Ly6CNK,Lymphoid,4522,
0:1:0:1:0:0:0:0:1:1:0,0,1,0,1,0,0,0,0,1,1,0,CD49bCD8T,Lymphoid,4392,
1:0:0:0:1:0:0:0:0:0:0,1,0,0,0,1,0,0,0,0,0,0,CD45negF480negMono-Mac,Myeloid,4174,
1:0:0:1:0:0:0:1:0:0:0,1,0,0,1,0,0,0,1,0,0,0,CD11bnegMono-Mac,Myeloid,3800,
0:0:0:1:0:1:0:0:1:1:0,0,0,0,1,0,1,0,0,1,1,0,CD49bDPT,Lymphoid,3793,
1:1:0:1:0:0:0:0:1:0:0,1,1,0,1,0,0,0,0,1,0,0,Ly6CCD49bDNT,Lymphoid,3190,
0:0:0:1:1:0:0:0:0:0:0,0,0,0,1,1,0,0,0,0,0,0,Ly6CnegF480negMono-Mac,Myeloid,3146,
0:0:0:1:1:0:1:0:0:0:0,0,0,0,1,1,0,1,0,0,0,0,Ly6CnegPMN,Myeloid,3136,
1:0:0:1:0:0:0:0:0:1:0,1,0,0,1,0,0,0,0,0,1,0,,,2821,
0:0:0:1:0:0:0:1:1:0:0,0,0,0,1,0,0,0,1,1,0,0,CD11bnegLy6CnegCD49bMono-Mac,Myeloid,2766,
0:0:1:1:1:0:0:1:0:0:0,0,0,1,1,1,0,0,1,0,0,0,cDC,Myeloid,2759,Y
0:0:0:0:0:0:0:1:0:0:1,0,0,0,0,0,0,0,1,0,0,1,,,2695,
0:1:0:1:1:1:0:0:0:0:0,0,1,0,1,1,1,0,0,0,0,0,CD11bCD4T,Lymphoid,2661,
0:1:0:1:0:0:0:1:0:1:0,0,1,0,1,0,0,0,1,0,1,0,,,2578,
0:1:0:1:0:0:0:0:1:0:0,0,1,0,1,0,0,0,0,1,0,0,CD49bDNT,Lymphoid,2513,
1:0:0:1:0:0:0:0:1:0:0,1,0,0,1,0,0,0,0,1,0,0,,,2148,
0:0:0:0:0:0:0:0:0:1:0,0,0,0,0,0,0,0,0,0,1,0,,,2075,
1:0:0:1:0:0:0:0:1:1:0,1,0,0,1,0,0,0,0,1,1,0,,,1994,
1:0:0:1:0:0:0:1:0:0:1,1,0,0,1,0,0,0,1,0,0,1,,,1898,
0:1:0:1:0:1:0:1:0:0:0,0,1,0,1,0,1,0,1,0,0,0,,,1892,
1:0:0:1:0:0:0:0:0:1:1,1,0,0,1,0,0,0,0,0,1,1,,,1888,
0:0:0:0:1:0:1:1:0:0:0,0,0,0,0,1,0,1,1,0,0,0,,,1862,
1:0:0:0:0:0:0:0:0:0:0,1,0,0,0,0,0,0,0,0,0,0,,,1853,
1:1:0:1:0:0:0:0:0:1:1,1,1,0,1,0,0,0,0,0,1,1,,,1791,
1:1:0:1:1:0:0:1:0:0:0,1,1,0,1,1,0,0,1,0,0,0,,,1762,
0:0:0:1:1:1:0:0:0:1:0,0,0,0,1,1,1,0,0,0,1,0,,,1730,
1:0:0:0:0:0:0:1:0:0:0,1,0,0,0,0,0,0,1,0,0,0,,,1674,
0:0:0:1:1:0:0:1:0:0:1,0,0,0,1,1,0,0,1,0,0,1,,,1632,
1:1:0:1:0:0:0:1:1:1:0,1,1,0,1,0,0,0,1,1,1,0,,,1490,
1:1:0:1:0:0:0:1:0:1:0,1,1,0,1,0,0,0,1,0,1,0,,,1401,
0:1:0:1:0:0:0:0:0:0:1,0,1,0,1,0,0,0,0,0,0,1,,,1380,
0:0:0:0:1:0:1:0:0:0:0,0,0,0,0,1,0,1,0,0,0,0,,,1217,
1:1:0:1:0:0:0:1:1:0:0,1,1,0,1,0,0,0,1,1,0,0,,,1189,
0:0:0:0:0:0:0:0:1:0:0,0,0,0,0,0,0,0,0,1,0,0,Platelet,,1185,Y
0:0:0:0:0:0:0:1:1:0:0,0,0,0,0,0,0,0,1,1,0,0,,,1169,
1:0:0:1:1:0:1:1:0:0:1,1,0,0,1,1,0,1,1,0,0,1,,,1166,
1:1:0:1:0:1:0:0:1:0:0,1,1,0,1,0,1,0,0,1,0,0,,,1127,
1:0:0:0:1:0:1:0:1:0:0,1,0,0,0,1,0,1,0,1,0,0,,,1056,
1:0:0:1:0:0:0:1:1:0:0,1,0,0,1,0,0,0,1,1,0,0,,,1050,
0:0:0:1:0:0:0:1:0:1:1,0,0,0,1,0,0,0,1,0,1,1,,,1020,
0:1:0:1:1:0:0:0:0:1:0,0,1,0,1,1,0,0,0,0,1,0,,,1001,
0:0:0:1:0:1:0:0:0:0:1,0,0,0,1,0,1,0,0,0,0,1,,,999,
0:0:0:0:1:0:0:1:0:0:0,0,0,0,0,1,0,0,1,0,0,0,,,980,
0:0:0:1:0:0:0:1:1:0:1,0,0,0,1,0,0,0,1,1,0,1,,,871,
0:1:1:1:0:1:0:0:0:0:0,0,1,1,1,0,1,0,0,0,0,0,,,848,
1:0:0:1:0:1:0:0:0:1:0,1,0,0,1,0,1,0,0,0,1,0,,,835,
0:0:0:0:0:1:0:0:0:0:0,0,0,0,0,0,1,0,0,0,0,0,,,814,
0:1:1:1:0:0:0:0:0:1:0,0,1,1,1,0,0,0,0,0,1,0,,,805,
0:0:0:1:0:1:0:1:0:1:0,0,0,0,1,0,1,0,1,0,1,0,,,803,
0:1:0:1:0:0:0:1:0:0:0,0,1,0,1,0,0,0,1,0,0,0,,,794,
0:1:0:1:0:1:0:0:1:1:0,0,1,0,1,0,1,0,0,1,1,0,,,745,
1:0:0:1:1:0:0:1:0:0:1,1,0,0,1,1,0,0,1,0,0,1,,,743,
0:0:0:1:1:0:0:0:0:1:0,0,0,0,1,1,0,0,0,0,1,0,,,717,
1:1:0:1:0:1:0:0:0:1:0,1,1,0,1,0,1,0,0,0,1,0,,,677,
1:0:0:1:0:0:0:1:0:1:1,1,0,0,1,0,0,0,1,0,1,1,,,666,
1:0:0:1:0:1:0:0:0:0:0,1,0,0,1,0,1,0,0,0,0,0,,,658,
1:0:0:1:0:0:0:0:1:0:1,1,0,0,1,0,0,0,0,1,0,1,,,652,
0:1:0:1:1:0:0:0:0:0:0,0,1,0,1,1,0,0,0,0,0,0,,,652,
0:0:0:1:0:1:0:0:0:1:1,0,0,0,1,0,1,0,0,0,1,1,,,641,
1:0:0:1:0:1:0:0:0:0:1,1,0,0,1,0,1,0,0,0,0,1,,,637,
1:0:0:1:0:1:0:0:0:1:1,1,0,0,1,0,1,0,0,0,1,1,,,608,
1:0:0:0:0:0:0:0:0:0:1,1,0,0,0,0,0,0,0,0,0,1,,,601,
0:0:1:1:1:0:0:1:0:1:0,0,0,1,1,1,0,0,1,0,1,0,,,593,
1:1:0:1:1:0:0:1:1:0:0,1,1,0,1,1,0,0,1,1,0,0,,,593,
0:1:0:1:1:0:0:1:0:0:0,0,1,0,1,1,0,0,1,0,0,0,,,587,
0:0:0:1:0:0:0:1:0:1:0,0,0,0,1,0,0,0,1,0,1,0,,,556,
0:1:0:1:1:0:0:1:1:0:0,0,1,0,1,1,0,0,1,1,0,0,,,547,
0:0:0:1:1:0:0:0:1:0:1,0,0,0,1,1,0,0,0,1,0,1,,,546,
1:1:0:1:0:0:0:1:0:0:0,1,1,0,1,0,0,0,1,0,0,0,,,522,
1:0:0:1:1:0:1:1:1:0:0,1,0,0,1,1,0,1,1,1,0,0,,,515,
0:0:0:1:0:0:0:0:1:1:0,0,0,0,1,0,0,0,0,1,1,0,,,512,
0:0:0:0:1:0:0:1:1:0:0,0,0,0,0,1,0,0,1,1,0,0,,,505,
0:0:0:0:1:0:0:0:0:0:0,0,0,0,0,1,0,0,0,0,0,0,,,479,
0:1:0:1:0:1:0:0:0:0:1,0,1,0,1,0,1,0,0,0,0,1,B220CD4T,Lymphoid,472,
1:0:0:1:1:0:0:0:0:0:1,1,0,0,1,1,0,0,0,0,0,1,,,471,
1:0:0:1:0:1:0:1:0:0:1,1,0,0,1,0,1,0,1,0,0,1,,,455,
0:0:1:1:1:1:0:1:0:0:0,0,0,1,1,1,1,0,1,0,0,0,CD4cDC,Myeloid,454,
0:0:0:1:0:1:0:0:1:0:0,0,0,0,1,0,1,0,0,1,0,0,,,447,
1:0:0:1:0:0:0:1:1:1:0,1,0,0,1,0,0,0,1,1,1,0,,,447,
0:0:1:1:0:0:0:0:0:1:0,0,0,1,1,0,0,0,0,0,1,0,CD11bnegCD8F480negcDC,,438,
0:0:1:1:1:0:0:0:0:1:0,0,0,1,1,1,0,0,0,0,1,0,,,436,
0:1:0:1:0:0:0:1:0:1:1,0,1,0,1,0,0,0,1,0,1,1,,,431,
1:1:0:1:1:1:0:0:0:0:0,1,1,0,1,1,1,0,0,0,0,0,,,417,
1:0:0:1:1:0:1:0:0:0:1,1,0,0,1,1,0,1,0,0,0,1,,,411,
0:1:0:1:1:1:0:0:1:0:0,0,1,0,1,1,1,0,0,1,0,0,,,406,
1:0:0:1:0:1:0:0:1:0:0,1,0,0,1,0,1,0,0,1,0,0,,,405,
1:1:1:1:0:0:0:0:0:1:0,1,1,1,1,0,0,0,0,0,1,0,,,401,
0:1:0:1:0:1:0:1:1:0:0,0,1,0,1,0,1,0,1,1,0,0,,,389,
0:0:0:1:1:0:0:1:0:1:0,0,0,0,1,1,0,0,1,0,1,0,,,373,
0:0:0:1:1:0:0:1:1:0:1,0,0,0,1,1,0,0,1,1,0,1,,,368,
0:0:1:1:0:1:0:0:0:1:0,0,0,1,1,0,1,0,0,0,1,0,,,361,
0:0:0:1:0:0:0:1:1:1:1,0,0,0,1,0,0,0,1,1,1,1,,,359,
0:0:1:1:0:0:0:0:0:0:1,0,0,1,1,0,0,0,0,0,0,1,,,349,
0:1:0:1:0:0:0:1:1:0:0,0,1,0,1,0,0,0,1,1,0,0,,,343,
0:0:1:1:1:0:0:0:0:0:0,0,0,1,1,1,0,0,0,0,0,0,,,338,
0:0:0:1:0:0:0:0:1:1:1,0,0,0,1,0,0,0,0,1,1,1,,,332,
1:1:0:1:1:0:0:0:0:1:0,1,1,0,1,1,0,0,0,0,1,0,,,331,
1:1:0:1:0:0:0:0:1:1:1,1,1,0,1,0,0,0,0,1,1,1,,,317,
0:0:1:1:0:0:0:1:0:1:0,0,0,1,1,0,0,0,1,0,1,0,,,307,
1:1:0:1:0:1:0:0:1:1:0,1,1,0,1,0,1,0,0,1,1,0,,,306,
0:1:0:1:1:1:0:0:0:1:0,0,1,0,1,1,1,0,0,0,1,0,,,295,
1:0:0:1:1:0:0:1:0:1:0,1,0,0,1,1,0,0,1,0,1,0,,,294,
0:0:0:1:1:0:1:0:1:0:0,0,0,0,1,1,0,1,0,1,0,0,,,271,
1:1:0:1:0:0:0:1:0:1:1,1,1,0,1,0,0,0,1,0,1,1,,,271,
0:1:0:1:1:1:0:1:0:0:0,0,1,0,1,1,1,0,1,0,0,0,,,270,
1:1:0:1:0:1:0:1:0:0:0,1,1,0,1,0,1,0,1,0,0,0,,,260,
1:0:0:1:0:1:0:1:0:1:1,1,0,0,1,0,1,0,1,0,1,1,,,247,
1:0:0:1:0:0:0:1:0:1:0,1,0,0,1,0,0,0,1,0,1,0,,,242,
1:0:0:0:1:0:1:1:0:0:1,1,0,0,0,1,0,1,1,0,0,1,,,239,
0:1:0:1:0:0:0:1:1:1:0,0,1,0,1,0,0,0,1,1,1,0,,,232,
1:1:0:1:1:0:0:0:1:1:0,1,1,0,1,1,0,0,0,1,1,0,,,231,
0:1:1:1:0:0:0:0:0:0:0,0,1,1,1,0,0,0,0,0,0,0,,,228,
0:0:0:1:1:1:0:1:0:1:0,0,0,0,1,1,1,0,1,0,1,0,,,224,
0:0:0:1:1:0:0:0:0:1:1,0,0,0,1,1,0,0,0,0,1,1,,,223,
0:1:0:1:1:0:0:1:0:1:0,0,1,0,1,1,0,0,1,0,1,0,,,219,
0:0:0:1:0:0:1:0:0:0:1,0,0,0,1,0,0,1,0,0,0,1,,,212,
1:1:1:1:0:0:0:0:1:1:0,1,1,1,1,0,0,0,0,1,1,0,,,192,
0:1:0:1:1:0:0:0:1:0:0,0,1,0,1,1,0,0,0,1,0,0,,,191,
0:1:0:1:0:0:0:0:1:1:1,0,1,0,1,0,0,0,0,1,1,1,,,191,
1:0:1:1:1:0:0:1:0:0:0,1,0,1,1,1,0,0,1,0,0,0,Ly6CcDC,,191,
1:0:0:0:1:0:0:1:1:0:0,1,0,0,0,1,0,0,1,1,0,0,,,190,
0:0:0:1:1:1:0:1:0:0:0,0,0,0,1,1,1,0,1,0,0,0,,,189,
1:1:0:1:1:0:1:1:0:0:0,1,1,0,1,1,0,1,1,0,0,0,,,187,
1:0:1:1:0:0:0:0:0:1:1,1,0,1,1,0,0,0,0,0,1,1,,,186,
1:1:1:1:0:1:0:0:0:0:0,1,1,1,1,0,1,0,0,0,0,0,,,185,
0:1:0:1:0:1:0:1:0:1:0,0,1,0,1,0,1,0,1,0,1,0,,,182,
0:0:1:1:1:0:0:1:1:0:0,0,0,1,1,1,0,0,1,1,0,0,,,181,
0:1:0:0:0:0:0:0:0:0:0,0,1,0,0,0,0,0,0,0,0,0,,,167,
0:0:0:0:1:0:0:0:1:0:0,0,0,0,0,1,0,0,0,1,0,0,,,165,
0:0:0:1:0:1:0:1:0:0:0,0,0,0,1,0,1,0,1,0,0,0,,,163,
0:0:0:1:1:0:0:1:1:1:0,0,0,0,1,1,0,0,1,1,1,0,,,162,
1:0:1:1:0:0:0:0:0:1:0,1,0,1,1,0,0,0,0,0,1,0,,,153,
1:0:1:1:0:0:0:0:0:0:1,1,0,1,1,0,0,0,0,0,0,1,,,151,
1:1:0:1:0:0:0:0:0:0:1,1,1,0,1,0,0,0,0,0,0,1,,,147,
1:0:0:1:0:0:0:0:1:1:1,1,0,0,1,0,0,0,0,1,1,1,,,146,
0:0:0:1:1:0:0:0:1:1:0,0,0,0,1,1,0,0,0,1,1,0,,,146,
0:1:0:1:1:1:0:1:1:0:0,0,1,0,1,1,1,0,1,1,0,0,,,143,
0:0:0:1:1:1:0:0:0:0:0,0,0,0,1,1,1,0,0,0,0,0,,,142,
1:0:0:1:0:0:0:1:1:0:1,1,0,0,1,0,0,0,1,1,0,1,,,141,
0:1:0:1:1:1:0:0:1:1:0,0,1,0,1,1,1,0,0,1,1,0,,,141,
0:0:0:0:1:0:0:0:0:0:1,0,0,0,0,1,0,0,0,0,0,1,,,141,
1:0:0:1:0:1:0:0:1:1:0,1,0,0,1,0,1,0,0,1,1,0,,,137,
1:1:0:1:1:0:0:1:1:1:0,1,1,0,1,1,0,0,1,1,1,0,,,136,
0:1:0:1:1:0:0:0:1:1:0,0,1,0,1,1,0,0,0,1,1,0,,,136,
1:1:0:1:0:1:0:0:0:0:1,1,1,0,1,0,1,0,0,0,0,1,,,132,
1:0:0:1:1:0:1:1:0:1:0,1,0,0,1,1,0,1,1,0,1,0,,,130,
1:0:1:1:0:0:0:0:0:0:0,1,0,1,1,0,0,0,0,0,0,0,,,126,
0:0:0:1:0:0:0:1:1:1:0,0,0,0,1,0,0,0,1,1,1,0,,,126,
1:0:1:1:1:0:0:0:0:0:0,1,0,1,1,1,0,0,0,0,0,0,,,121,
1:1:0:1:1:0:1:0:0:0:0,1,1,0,1,1,0,1,0,0,0,0,,,117,
0:0:0:0:0:0:0:1:0:1:0,0,0,0,0,0,0,0,1,0,1,0,,,117,
1:0:0:0:1:0:0:1:0:0:1,1,0,0,0,1,0,0,1,0,0,1,,,116,
1:1:0:1:1:0:0:0:0:0:0,1,1,0,1,1,0,0,0,0,0,0,,,116,
1:0:0:1:1:0:0:0:0:1:0,1,0,0,1,1,0,0,0,0,1,0,,,116,
1:0:0:1:0:0:1:0:1:0:0,1,0,0,1,0,0,1,0,1,0,0,,,113,
0:0:0:0:0:0:0:0:1:0:1,0,0,0,0,0,0,0,0,1,0,1,,,112,
1:1:0:1:0:0:0:1:1:1:1,1,1,0,1,0,0,0,1,1,1,1,,,111,
1:1:0:1:1:0:0:1:0:1:0,1,1,0,1,1,0,0,1,0,1,0,,,111,
0:0:1:1:0:0:0:0:0:1:1,0,0,1,1,0,0,0,0,0,1,1,,,111,
0:0:0:0:0:1:0:0:1:1:0,0,0,0,0,0,1,0,0,1,1,0,,,109,
1:0:0:0:1:0:1:0:0:0:1,1,0,0,0,1,0,1,0,0,0,1,,,107,
1:0:0:0:1:0:0:0:1:0:0,1,0,0,0,1,0,0,0,1,0,0,,,107,
0:1:1:1:1:0:0:0:0:1:0,0,1,1,1,1,0,0,0,0,1,0,,,106,
1:0:0:1:0:1:0:1:0:0:0,1,0,0,1,0,1,0,1,0,0,0,,,99,
0:0:1:1:1:0:0:0:1:0:0,0,0,1,1,1,0,0,0,1,0,0,,,98,
1:0:0:1:1:0:0:1:1:1:0,1,0,0,1,1,0,0,1,1,1,0,,,97,
1:0:1:1:0:0:0:1:0:0:1,1,0,1,1,0,0,0,1,0,0,1,,,96,
0:0:1:1:1:1:0:1:0:1:0,0,0,1,1,1,1,0,1,0,1,0,,,96,
1:0:0:1:1:0:0:0:0:1:1,1,0,0,1,1,0,0,0,0,1,1,,,96,
0:0:0:1:1:0:0:1:0:1:1,0,0,0,1,1,0,0,1,0,1,1,,,96,
0:1:1:1:0:0:0:0:0:1:1,0,1,1,1,0,0,0,0,0,1,1,,,92,
1:0:0:0:1:0:1:1:1:0:0,1,0,0,0,1,0,1,1,1,0,0,,,91,
1:0:0:1:1:0:0:1:0:1:1,1,0,0,1,1,0,0,1,0,1,1,,,90,
0:1:1:1:1:0:0:1:0:1:0,0,1,1,1,1,0,0,1,0,1,0,,,87,
0:1:0:1:1:0:0:0:0:0:1,0,1,0,1,1,0,0,0,0,0,1,,,87,
1:0:0:1:0:0:1:1:0:0:0,1,0,0,1,0,0,1,1,0,0,0,,,86,
0:0:0:1:1:1:0:1:1:0:0,0,0,0,1,1,1,0,1,1,0,0,,,84,
0:1:1:1:0:1:0:0:0:1:0,0,1,1,1,0,1,0,0,0,1,0,,,83,
1:0:0:1:1:0:0:0:1:0:1,1,0,0,1,1,0,0,0,1,0,1,,,81,
1:0:0:1:0:1:0:1:1:0:0,1,0,0,1,0,1,0,1,1,0,0,,,81,
0:0:0:1:0:1:1:0:0:1:0,0,0,0,1,0,1,1,0,0,1,0,,,80,
0:1:0:1:0:0:0:0:1:0:1,0,1,0,1,0,0,0,0,1,0,1,,,80,
1:1:0:1:0:1:0:1:1:0:0,1,1,0,1,0,1,0,1,1,0,0,,,78,
1:1:0:1:1:0:1:0:1:0:0,1,1,0,1,1,0,1,0,1,0,0,,,75,
1:0:0:1:0:0:1:0:0:0:0,1,0,0,1,0,0,1,0,0,0,0,,,75,
0:1:0:1:1:0:0:0:0:1:1,0,1,0,1,1,0,0,0,0,1,1,,,75,
1:0:0:0:0:0:0:1:0:0:1,1,0,0,0,0,0,0,1,0,0,1,,,75,
1:0:0:1:1:0:0:0:1:1:0,1,0,0,1,1,0,0,0,1,1,0,,,75,
0:0:1:1:0:0:0:1:0:1:1,0,0,1,1,0,0,0,1,0,1,1,,,75,
0:1:0:1:0:0:0:1:0:0:1,0,1,0,1,0,0,0,1,0,0,1,,,74,
1:0:1:1:1:0:0:0:0:1:0,1,0,1,1,1,0,0,0,0,1,0,,,73,
0:0:0:0:1:1:0:0:0:1:0,0,0,0,0,1,1,0,0,0,1,0,,,73,
1:0:0:1:1:1:0:1:0:0:0,1,0,0,1,1,1,0,1,0,0,0,,,72,
0:0:0:1:0:1:0:1:0:0:1,0,0,0,1,0,1,0,1,0,0,1,,,72,
0:0:0:1:1:1:0:0:1:1:0,0,0,0,1,1,1,0,0,1,1,0,,,72,
0:1:0:1:1:1:0:1:0:1:0,0,1,0,1,1,1,0,1,0,1,0,,,71,
1:1:0:1:1:0:0:1:0:0:1,1,1,0,1,1,0,0,1,0,0,1,,,71,
1:1:1:1:0:0:0:1:1:1:0,1,1,1,1,0,0,0,1,1,1,0,,,70,
1:0:1:1:0:1:0:0:0:1:1,1,0,1,1,0,1,0,0,0,1,1,CD8pDC,,70,
0:0:1:1:0:0:0:0:0:0:0,0,0,1,1,0,0,0,0,0,0,0,CD11bnegcDC,,70,
1:0:0:1:1:0:0:1:1:0:1,1,0,0,1,1,0,0,1,1,0,1,,,69,
0:1:0:0:0:1:0:0:0:0:0,0,1,0,0,0,1,0,0,0,0,0,,,68,
0:0:1:1:1:0:0:1:1:0:1,0,0,1,1,1,0,0,1,1,0,1,,,68,
0:0:1:1:1:0:0:1:1:1:0,0,0,1,1,1,0,0,1,1,1,0,,,68,
0:0:1:1:1:0:0:1:0:0:1,0,0,1,1,1,0,0,1,0,0,1,,,68,
1:0:0:1:0:0:0:1:1:1:1,1,0,0,1,0,0,0,1,1,1,1,,,68,
0:1:0:1:1:0:0:1:1:1:0,0,1,0,1,1,0,0,1,1,1,0,,,67,
1:0:1:1:0:0:0:1:0:1:1,1,0,1,1,0,0,0,1,0,1,1,,,65,
0:0:0:0:1:0:0:1:0:0:1,0,0,0,0,1,0,0,1,0,0,1,,,65,
0:0:1:1:0:0:0:1:0:0:0,0,0,1,1,0,0,0,1,0,0,0,,,62,
1:0:0:0:0:0:0:0:1:0:0,1,0,0,0,0,0,0,0,1,0,0,,,61,
1:0:0:0:0:0:1:0:0:0:0,1,0,0,0,0,0,1,0,0,0,0,,,61,
0:0:0:1:1:1:0:0:0:1:1,0,0,0,1,1,1,0,0,0,1,1,,,60,
0:0:0:1:1:1:0:0:1:0:0,0,0,0,1,1,1,0,0,1,0,0,,,58,
0:0:0:1:1:0:1:1:0:0:1,0,0,0,1,1,0,1,1,0,0,1,,,57,
0:1:0:0:0:0:0:0:0:1:0,0,1,0,0,0,0,0,0,0,1,0,,,55,
1:1:0:1:1:0:0:0:1:0:0,1,1,0,1,1,0,0,0,1,0,0,,,54,
0:0:0:1:1:0:1:1:1:0:0,0,0,0,1,1,0,1,1,1,0,0,,,54,
1:0:1:1:0:1:0:0:0:1:0,1,0,1,1,0,1,0,0,0,1,0,,,54,
1:0:0:1:1:1:0:1:0:0:1,1,0,0,1,1,1,0,1,0,0,1,,,53,
1:1:0:1:0:0:0:1:1:0:1,1,1,0,1,0,0,0,1,1,0,1,,,52,
0:0:1:1:1:0:0:1:0:1:1,0,0,1,1,1,0,0,1,0,1,1,,,52,
0:0:1:1:1:1:0:0:0:1:0,0,0,1,1,1,1,0,0,0,1,0,,,52,
0:1:1:1:0:0:0:1:0:1:0,0,1,1,1,0,0,0,1,0,1,0,,,52,
1:1:0:1:0:1:0:0:0:1:1,1,1,0,1,0,1,0,0,0,1,1,,,51,
0:0:1:1:0:0:0:1:0:0:1,0,0,1,1,0,0,0,1,0,0,1,,,50,
0:0:0:0:1:0:1:0:1:0:0,0,0,0,0,1,0,1,0,1,0,0,,,48,
0:1:1:1:0:0:0:0:1:1:0,0,1,1,1,0,0,0,0,1,1,0,,,48,
0:0:0:1:0:1:0:1:0:1:1,0,0,0,1,0,1,0,1,0,1,1,,,47,
0:0:0:1:1:0:1:0:0:0:1,0,0,0,1,1,0,1,0,0,0,1,,,47,
0:0:0:1:1:1:0:1:1:1:0,0,0,0,1,1,1,0,1,1,1,0,,,47,
0:1:0:1:0:1:0:0:0:1:1,0,1,0,1,0,1,0,0,0,1,1,,,46,
1:0:1:1:1:0:0:0:1:0:0,1,0,1,1,1,0,0,0,1,0,0,,,46,
0:0:0:1:0:1:0:1:1:0:0,0,0,0,1,0,1,0,1,1,0,0,,,45,
0:1:1:1:1:0:0:1:0:0:0,0,1,1,1,1,0,0,1,0,0,0,,,44,
1:1:0:1:1:1:0:1:0:0:0,1,1,0,1,1,1,0,1,0,0,0,,,44,
0:0:0:1:1:1:0:0:0:0:1,0,0,0,1,1,1,0,0,0,0,1,,,44,
1:1:0:0:1:0:0:1:0:0:0,1,1,0,0,1,0,0,1,0,0,0,,,44,
1:1:0:1:0:0:0:1:0:0:1,1,1,0,1,0,0,0,1,0,0,1,,,43,
0:0:0:0:1:0:0:0:0:1:0,0,0,0,0,1,0,0,0,0,1,0,,,43,
0:1:0:1:0:1:0:1:1:1:0,0,1,0,1,0,1,0,1,1,1,0,,,43,
0:1:0:1:1:1:0:1:1:1:0,0,1,0,1,1,1,0,1,1,1,0,,,43,
0:0:1:1:0:0:0:1:1:0:0,0,0,1,1,0,0,0,1,1,0,0,,,42,
1:0:1:1:1:0:0:1:0:1:0,1,0,1,1,1,0,0,1,0,1,0,,,42,
0:1:1:1:0:1:0:0:1:0:0,0,1,1,1,0,1,0,0,1,0,0,,,41,
1:0:0:0:0:0:0:0:0:1:0,1,0,0,0,0,0,0,0,0,1,0,,,41,
1:0:0:0:0:0:1:1:0:0:0,1,0,0,0,0,0,1,1,0,0,0,,,41,
0:0:0:0:1:0:0:1:0:1:0,0,0,0,0,1,0,0,1,0,1,0,,,41,
1:0:0:1:1:1:0:1:1:0:0,1,0,0,1,1,1,0,1,1,0,0,,,40,
1:0:0:0:1:0:0:1:0:1:0,1,0,0,0,1,0,0,1,0,1,0,,,40,
0:1:0:1:1:0:0:1:0:0:1,0,1,0,1,1,0,0,1,0,0,1,,,40,
0:1:0:0:0:1:0:0:0:1:0,0,1,0,0,0,1,0,0,0,1,0,,,39,
1:0:1:1:0:0:0:1:0:0:0,1,0,1,1,0,0,0,1,0,0,0,,,38,
1:0:0:1:0:1:0:0:1:1:1,1,0,0,1,0,1,0,0,1,1,1,,,37,
1:0:0:1:1:1:0:1:0:1:1,1,0,0,1,1,1,0,1,0,1,1,,,37,
1:1:1:1:1:0:1:1:1:1:1,1,1,1,1,1,0,1,1,1,1,1,,,37,
1:0:0:0:1:0:0:0:0:0:1,1,0,0,0,1,0,0,0,0,0,1,,,37,
1:1:1:1:0:0:0:1:1:0:0,1,1,1,1,0,0,0,1,1,0,0,,,37,
0:0:0:0:0:0:0:0:0:1:1,0,0,0,0,0,0,0,0,0,1,1,,,36,
1:1:0:1:1:1:0:0:0:1:0,1,1,0,1,1,1,0,0,0,1,0,,,36,
0:1:1:1:0:1:0:1:0:1:0,0,1,1,1,0,1,0,1,0,1,0,,,36,
1:0:0:0:0:0:1:0:1:0:0,1,0,0,0,0,0,1,0,1,0,0,,,36,
0:1:1:1:1:1:0:1:0:1:0,0,1,1,1,1,1,0,1,0,1,0,,,35,
1:1:1:1:0:0:0:0:0:1:1,1,1,1,1,0,0,0,0,0,1,1,,,35,
1:0:1:1:1:0:0:0:0:0:1,1,0,1,1,1,0,0,0,0,0,1,,,35,
0:1:0:1:0:0:0:1:1:1:1,0,1,0,1,0,0,0,1,1,1,1,,,34,
0:0:1:1:1:0:0:0:0:0:1,0,0,1,1,1,0,0,0,0,0,1,,,34,
0:1:1:1:1:0:0:0:0:0:0,0,1,1,1,1,0,0,0,0,0,0,,,34,
0:1:0:1:0:1:1:0:0:0:0,0,1,0,1,0,1,1,0,0,0,0,,,33,
1:0:0:0:0:1:0:0:0:1:0,1,0,0,0,0,1,0,0,0,1,0,,,33,
1:0:1:1:0:0:0:1:1:1:0,1,0,1,1,0,0,0,1,1,1,0,,,33,
0:0:1:1:0:0:0:0:1:0:0,0,0,1,1,0,0,0,0,1,0,0,,,32,
0:1:0:1:1:0:0:1:0:1:1,0,1,0,1,1,0,0,1,0,1,1,,,32,
1:0:0:0:1:0:1:1:0:1:0,1,0,0,0,1,0,1,1,0,1,0,,,32,
1:0:1:1:0:0:0:0:1:1:0,1,0,1,1,0,0,0,0,1,1,0,,,32,
0:0:0:1:1:0:0:1:1:1:1,0,0,0,1,1,0,0,1,1,1,1,,,32,
0:0:0:1:0:0:1:0:1:0:1,0,0,0,1,0,0,1,0,1,0,1,,,31,
1:1:0:1:0:0:1:0:1:1:0,1,1,0,1,0,0,1,0,1,1,0,,,31,
0:1:1:1:1:1:0:0:0:1:0,0,1,1,1,1,1,0,0,0,1,0,,,31,
1:1:0:1:0:0:0:0:1:0:1,1,1,0,1,0,0,0,0,1,0,1,,,31,
1:1:0:1:0:0:1:0:0:1:0,1,1,0,1,0,0,1,0,0,1,0,,,30,
0:1:1:1:1:1:0:0:0:0:0,0,1,1,1,1,1,0,0,0,0,0,,,30,
1:0:0:1:1:1:0:0:0:0:1,1,0,0,1,1,1,0,0,0,0,1,,,30,
0:0:1:1:1:1:0:0:0:0:0,0,0,1,1,1,1,0,0,0,0,0,,,30,
1:1:0:1:1:0:0:1:0:1:1,1,1,0,1,1,0,0,1,0,1,1,,,29,
1:1:0:1:1:1:1:1:1:1:1,1,1,0,1,1,1,1,1,1,1,1,,,29,
0:0:1:1:0:1:0:1:0:1:0,0,0,1,1,0,1,0,1,0,1,0,,,28,
1:1:0:1:1:0:1:1:1:0:0,1,1,0,1,1,0,1,1,1,0,0,,,28,
1:1:1:1:0:0:0:0:0:0:0,1,1,1,1,0,0,0,0,0,0,0,,,28,
0:0:1:1:1:0:0:0:0:1:1,0,0,1,1,1,0,0,0,0,1,1,,,27,
1:1:0:1:1:0:1:1:1:1:1,1,1,0,1,1,0,1,1,1,1,1,,,27,
1:0:1:1:0:1:0:0:0:0:1,1,0,1,1,0,1,0,0,0,0,1,pDC,Lymphoid,27,Y
1:0:1:1:1:0:0:1:1:0:0,1,0,1,1,1,0,0,1,1,0,0,,,26,
0:1:1:1:0:1:0:1:0:0:0,0,1,1,1,0,1,0,1,0,0,0,,,26,
0:1:0:1:0:0:1:0:0:0:0,0,1,0,1,0,0,1,0,0,0,0,,,26,
1:0:0:1:1:1:0:0:0:0:0,1,0,0,1,1,1,0,0,0,0,0,,,26,
0:0:1:1:0:0:0:1:1:0:1,0,0,1,1,0,0,0,1,1,0,1,,,25,
1:1:1:1:0:0:0:0:1:0:0,1,1,1,1,0,0,0,0,1,0,0,,,25,
1:1:0:1:1:0:0:1:1:0:1,1,1,0,1,1,0,0,1,1,0,1,,,25,
0:0:0:0:0:1:0:1:0:1:0,0,0,0,0,0,1,0,1,0,1,0,,,25,
0:0:1:1:0:0:0:0:1:0:1,0,0,1,1,0,0,0,0,1,0,1,,,24,
1:1:0:1:1:1:0:1:1:0:0,1,1,0,1,1,1,0,1,1,0,0,,,24,
1:0:1:1:1:0:0:0:0:1:1,1,0,1,1,1,0,0,0,0,1,1,,,24,
0:0:0:0:0:0:0:1:0:1:1,0,0,0,0,0,0,0,1,0,1,1,,,24,
0:0:1:1:1:0:0:0:1:0:1,0,0,1,1,1,0,0,0,1,0,1,,,24,
1:0:0:1:1:1:0:0:0:1:1,1,0,0,1,1,1,0,0,0,1,1,,,23,
1:1:0:1:1:0:0:1:1:1:1,1,1,0,1,1,0,0,1,1,1,1,,,23,
0:1:0:1:0:0:0:1:1:0:1,0,1,0,1,0,0,0,1,1,0,1,,,23,
0:0:1:1:0:0:0:1:1:1:0,0,0,1,1,0,0,0,1,1,1,0,,,23,
0:0:0:1:1:0:1:1:0:1:0,0,0,0,1,1,0,1,1,0,1,0,,,22,
1:0:0:1:1:1:0:0:0:1:0,1,0,0,1,1,1,0,0,0,1,0,,,22,
1:0:1:1:1:0:0:1:0:0:1,1,0,1,1,1,0,0,1,0,0,1,,,22,
1:0:0:1:0:1:0:1:0:1:0,1,0,0,1,0,1,0,1,0,1,0,,,22,
0:0:0:0:0:1:0:1:0:0:0,0,0,0,0,0,1,0,1,0,0,0,,,21,
0:1:1:1:0:1:0:0:1:1:0,0,1,1,1,0,1,0,0,1,1,0,,,21,
0:0:1:1:1:0:0:0:1:1:0,0,0,1,1,1,0,0,0,1,1,0,,,21,
0:0:0:1:0:0:1:0:0:0:0,0,0,0,1,0,0,1,0,0,0,0,,,21,
1:0:1:1:0:0:0:1:1:0:0,1,0,1,1,0,0,0,1,1,0,0,,,21,
1:0:0:0:0:1:0:0:0:0:0,1,0,0,0,0,1,0,0,0,0,0,,,21,
1:1:0:1:0:0:1:1:1:1:0,1,1,0,1,0,0,1,1,1,1,0,,,21,
0:1:1:1:1:1:0:1:0:0:0,0,1,1,1,1,1,0,1,0,0,0,,,19,
0:1:0:1:1:1:0:0:0:0:1,0,1,0,1,1,1,0,0,0,0,1,,,19,
1:0:0:1:1:1:1:0:0:0:0,1,0,0,1,1,1,1,0,0,0,0,,,19,
0:0:1:1:0:0:0:0:1:1:0,0,0,1,1,0,0,0,0,1,1,0,,,19,
0:0:0:0:1:1:0:0:0:0:0,0,0,0,0,1,1,0,0,0,0,0,,,19,
1:1:0:1:1:1:0:0:1:1:0,1,1,0,1,1,1,0,0,1,1,0,,,19,
0:0:0:1:1:0:0:0:1:1:1,0,0,0,1,1,0,0,0,1,1,1,,,19,
1:1:0:0:0:0:0:0:0:0:0,1,1,0,0,0,0,0,0,0,0,0,,,18,
0:1:0:0:1:0:0:0:0:0:0,0,1,0,0,1,0,0,0,0,0,0,,,18,
1:1:0:1:1:0:1:1:0:1:0,1,1,0,1,1,0,1,1,0,1,0,,,18,
0:1:0:1:1:0:1:1:0:0:0,0,1,0,1,1,0,1,1,0,0,0,,,18,
0:1:1:1:0:0:0:1:1:1:0,0,1,1,1,0,0,0,1,1,1,0,,,18,
1:1:1:1:0:1:0:0:0:1:0,1,1,1,1,0,1,0,0,0,1,0,,,18,
0:0:0:0:0:0:0:1:1:1:0,0,0,0,0,0,0,0,1,1,1,0,,,18,
1:1:0:1:1:0:0:0:0:1:1,1,1,0,1,1,0,0,0,0,1,1,,,18,
0:0:0:1:0:0:1:0:0:1:0,0,0,0,1,0,0,1,0,0,1,0,,,17,
1:1:1:1:0:0:1:1:1:1:1,1,1,1,1,0,0,1,1,1,1,1,,,17,
1:0:0:0:0:0:0:1:1:0:0,1,0,0,0,0,0,0,1,1,0,0,,,17,
1:1:0:1:0:0:1:1:1:0:0,1,1,0,1,0,0,1,1,1,0,0,,,17,
1:1:1:1:1:0:0:1:1:1:0,1,1,1,1,1,0,0,1,1,1,0,,,17,
1:1:0:1:1:0:1:1:0:0:1,1,1,0,1,1,0,1,1,0,0,1,,,17,
0:1:0:0:0:0:0:1:0:0:0,0,1,0,0,0,0,0,1,0,0,0,,,16,
1:0:0:1:1:1:1:1:0:0:0,1,0,0,1,1,1,1,1,0,0,0,,,16,
1:1:0:1:1:0:1:1:0:1:1,1,1,0,1,1,0,1,1,0,1,1,,,16,
1:0:0:1:0:0:1:0:0:0:1,1,0,0,1,0,0,1,0,0,0,1,,,16,
1:1:1:1:0:0:0:0:1:1:1,1,1,1,1,0,0,0,0,1,1,1,,,16,
0:1:0:1:0:1:0:0:1:0:1,0,1,0,1,0,1,0,0,1,0,1,,,16,
1:0:0:1:0:0:1:1:1:0:0,1,0,0,1,0,0,1,1,1,0,0,,,16,
0:0:1:1:0:1:0:0:0:1:1,0,0,1,1,0,1,0,0,0,1,1,,,16,
1:1:1:1:0:0:0:1:0:1:0,1,1,1,1,0,0,0,1,0,1,0,,,15,
0:1:0:0:0:0:0:0:1:0:0,0,1,0,0,0,0,0,0,1,0,0,,,15,
0:0:0:1:0:0:1:1:0:0:1,0,0,0,1,0,0,1,1,0,0,1,,,15,
1:1:0:1:1:1:0:0:1:0:0,1,1,0,1,1,1,0,0,1,0,0,,,15,
0:0:0:1:0:0:1:0:1:0:0,0,0,0,1,0,0,1,0,1,0,0,,,15,
0:0:0:1:1:1:0:1:0:1:1,0,0,0,1,1,1,0,1,0,1,1,,,15,
1:0:1:1:0:0:0:1:0:1:0,1,0,1,1,0,0,0,1,0,1,0,,,14,
1:0:0:1:1:0:0:1:1:1:1,1,0,0,1,1,0,0,1,1,1,1,,,14,
1:0:1:1:1:0:0:1:1:1:0,1,0,1,1,1,0,0,1,1,1,0,,,14,
1:0:1:1:1:0:0:0:1:1:0,1,0,1,1,1,0,0,0,1,1,0,,,14,
0:0:0:0:0:1:0:0:0:1:1,0,0,0,0,0,1,0,0,0,1,1,,,14,
0:0:0:1:0:1:0:0:1:0:1,0,0,0,1,0,1,0,0,1,0,1,,,13,
1:1:1:1:0:0:0:1:1:1:1,1,1,1,1,0,0,0,1,1,1,1,,,13,
1:1:1:1:1:0:0:1:0:1:0,1,1,1,1,1,0,0,1,0,1,0,,,13,
0:1:0:0:0:0:0:0:0:0:1,0,1,0,0,0,0,0,0,0,0,1,,,13,
1:1:0:0:1:0:1:1:0:0:0,1,1,0,0,1,0,1,1,0,0,0,,,13,
1:1:0:1:0:1:1:0:0:0:0,1,1,0,1,0,1,1,0,0,0,0,,,13,
0:1:1:1:0:0:0:1:1:0:0,0,1,1,1,0,0,0,1,1,0,0,,,13,
1:0:0:0:1:1:0:1:0:0:0,1,0,0,0,1,1,0,1,0,0,0,,,13,
1:1:1:1:1:0:0:0:0:1:0,1,1,1,1,1,0,0,0,0,1,0,,,13,
1:1:1:1:1:0:0:1:1:0:0,1,1,1,1,1,0,0,1,1,0,0,,,12,
1:0:0:1:0:1:1:0:0:0:1,1,0,0,1,0,1,1,0,0,0,1,,,12,
1:0:1:1:0:1:0:1:0:1:1,1,0,1,1,0,1,0,1,0,1,1,,,12,
1:1:0:0:1:0:0:0:0:0:0,1,1,0,0,1,0,0,0,0,0,0,,,12,
1:0:1:1:1:1:0:0:0:1:1,1,0,1,1,1,1,0,0,0,1,1,,,12,
1:0:0:1:1:0:1:1:1:1:0,1,0,0,1,1,0,1,1,1,1,0,,,12,
1:0:0:1:1:0:0:0:1:1:1,1,0,0,1,1,0,0,0,1,1,1,,,12,
0:0:0:1:1:1:0:1:0:0:1,0,0,0,1,1,1,0,1,0,0,1,,,12,
1:0:1:1:0:1:0:1:0:0:1,1,0,1,1,0,1,0,1,0,0,1,,,12,
0:1:0:1:0:1:0:1:0:0:1,0,1,0,1,0,1,0,1,0,0,1,,,12,
1:1:1:1:0:1:0:0:0:1:1,1,1,1,1,0,1,0,0,0,1,1,,,12,
1:1:0:1:0:0:1:1:1:1:1,1,1,0,1,0,0,1,1,1,1,1,,,12,
1:0:1:1:0:0:0:0:1:1:1,1,0,1,1,0,0,0,0,1,1,1,,,12,
1:0:0:1:0:0:1:0:0:1:1,1,0,0,1,0,0,1,0,0,1,1,,,11,
1:0:1:0:1:0:0:0:0:0:0,1,0,1,0,1,0,0,0,0,0,0,,,11,
1:0:1:1:1:0:0:1:0:1:1,1,0,1,1,1,0,0,1,0,1,1,,,11,
0:1:1:1:0:0:0:0:1:0:0,0,1,1,1,0,0,0,0,1,0,0,,,11,
0:0:0:0:1:0:1:1:0:0:1,0,0,0,0,1,0,1,1,0,0,1,,,11,
0:0:1:1:1:1:0:1:1:1:0,0,0,1,1,1,1,0,1,1,1,0,,,11,
1:1:0:1:0:1:0:1:0:1:0,1,1,0,1,0,1,0,1,0,1,0,,,11,
1:1:0:0:0:0:0:0:0:1:0,1,1,0,0,0,0,0,0,0,1,0,,,11,
0:0:0:1:0:1:0:1:1:1:0,0,0,0,1,0,1,0,1,1,1,0,,,11,
1:0:0:1:1:0:1:0:0:1:0,1,0,0,1,1,0,1,0,0,1,0,,,11,
1:1:0:0:1:0:1:0:0:0:0,1,1,0,0,1,0,1,0,0,0,0,,,11,
1:0:0:1:1:1:0:1:0:1:0,1,0,0,1,1,1,0,1,0,1,0,,,11,
1:0:0:1:0:0:1:1:1:1:0,1,0,0,1,0,0,1,1,1,1,0,,,11,
0:1:1:1:0:0:0:0:1:1:1,0,1,1,1,0,0,0,0,1,1,1,,,11,
1:1:0:1:0:0:1:0:0:0:0,1,1,0,1,0,0,1,0,0,0,0,,,11,
1:1:0:1:1:1:0:1:1:1:0,1,1,0,1,1,1,0,1,1,1,0,,,11,
1:0:1:1:0:0:0:0:1:0:0,1,0,1,1,0,0,0,0,1,0,0,,,11,
0:1:1:1:1:0:0:1:1:1:0,0,1,1,1,1,0,0,1,1,1,0,,,10,
0:0:0:0:1:0:1:0:0:0:1,0,0,0,0,1,0,1,0,0,0,1,,,10,
1:1:0:1:1:0:1:1:1:0:1,1,1,0,1,1,0,1,1,1,0,1,,,10,
1:1:1:1:1:0:0:0:1:1:0,1,1,1,1,1,0,0,0,1,1,0,,,10,
1:1:0:1:0:0:1:0:1:0:0,1,1,0,1,0,0,1,0,1,0,0,,,10,
0:0:1:1:0:1:0:0:0:0:0,0,0,1,1,0,1,0,0,0,0,0,,,10,
1:1:0:1:0:0:1:1:0:1:1,1,1,0,1,0,0,1,1,0,1,1,,,10,
0:1:1:1:0:1:0:0:0:0:1,0,1,1,1,0,1,0,0,0,0,1,,,10,
0:1:1:1:1:1:0:0:1:1:0,0,1,1,1,1,1,0,0,1,1,0,,,10,
1:1:1:1:1:0:1:1:0:1:1,1,1,1,1,1,0,1,1,0,1,1,,,10,
1:0:1:1:1:0:0:1:1:0:1,1,0,1,1,1,0,0,1,1,0,1,,,10,
0:0:1:0:0:0:0:0:0:0:0,0,0,1,0,0,0,0,0,0,0,0,,,10,
1:1:1:1:0:0:0:1:0:1:1,1,1,1,1,0,0,0,1,0,1,1,,,9,
1:0:0:1:1:0:1:1:0:1:1,1,0,0,1,1,0,1,1,0,1,1,,,9,
0:1:0:1:0:1:1:0:1:0:0,0,1,0,1,0,1,1,0,1,0,0,,,9,
1:0:0:1:1:1:0:0:1:0:0,1,0,0,1,1,1,0,0,1,0,0,,,9,
1:0:1:0:1:0:0:1:0:0:0,1,0,1,0,1,0,0,1,0,0,0,,,9,
0:0:0:0:0:0:1:0:0:0:0,0,0,0,0,0,0,1,0,0,0,0,,,9,
1:0:0:1:0:1:1:0:0:1:1,1,0,0,1,0,1,1,0,0,1,1,,,9,
0:1:1:1:0:1:0:1:1:1:0,0,1,1,1,0,1,0,1,1,1,0,,,9,
0:1:0:0:1:0:0:1:0:0:0,0,1,0,0,1,0,0,1,0,0,0,,,9,
0:0:0:0:0:0:0:1:1:0:1,0,0,0,0,0,0,0,1,1,0,1,,,9,
1:0:1:1:1:0:1:1:0:0:0,1,0,1,1,1,0,1,1,0,0,0,,,9,
0:1:0:1:0:0:1:0:0:1:0,0,1,0,1,0,0,1,0,0,1,0,,,9,
0:1:1:1:1:0:0:1:1:0:0,0,1,1,1,1,0,0,1,1,0,0,,,9,
0:1:1:1:0:0:0:1:0:1:1,0,1,1,1,0,0,0,1,0,1,1,,,9,
1:0:0:1:0:1:1:1:0:0:1,1,0,0,1,0,1,1,1,0,0,1,,,9,
0:0:0:0:0:0:1:0:1:0:0,0,0,0,0,0,0,1,0,1,0,0,,,9,
0:0:0:1:0:0:1:0:0:1:1,0,0,0,1,0,0,1,0,0,1,1,,,9,
0:1:0:1:0:1:0:1:0:1:1,0,1,0,1,0,1,0,1,0,1,1,,,9,
0:0:0:0:1:0:1:1:0:1:0,0,0,0,0,1,0,1,1,0,1,0,,,8,
0:0:1:0:1:0:0:0:0:0:0,0,0,1,0,1,0,0,0,0,0,0,,,8,
0:0:0:0:1:1:0:1:0:0:0,0,0,0,0,1,1,0,1,0,0,0,,,8,
0:0:0:1:0:0:1:1:1:0:1,0,0,0,1,0,0,1,1,1,0,1,,,8,
0:0:1:1:0:1:0:0:1:1:0,0,0,1,1,0,1,0,0,1,1,0,,,8,
0:1:1:1:1:0:0:1:0:0:1,0,1,1,1,1,0,0,1,0,0,1,,,8,
1:0:1:1:1:1:0:0:0:1:0,1,0,1,1,1,1,0,0,0,1,0,,,8,
1:0:0:1:1:0:1:1:1:0:1,1,0,0,1,1,0,1,1,1,0,1,,,8,
0:0:1:1:1:0:0:0:1:1:1,0,0,1,1,1,0,0,0,1,1,1,,,8,
1:1:1:1:1:0:0:1:1:1:1,1,1,1,1,1,0,0,1,1,1,1,,,8,
1:0:0:0:0:0:0:0:0:1:1,1,0,0,0,0,0,0,0,0,1,1,,,8,
1:0:0:0:1:1:1:1:0:0:0,1,0,0,0,1,1,1,1,0,0,0,,,8,
0:0:1:1:1:1:0:1:1:0:0,0,0,1,1,1,1,0,1,1,0,0,,,8,
1:1:1:1:1:1:0:0:0:1:0,1,1,1,1,1,1,0,0,0,1,0,,,7,
1:0:0:0:1:1:1:0:0:0:0,1,0,0,0,1,1,1,0,0,0,0,,,7,
0:0:1:0:1:0:0:0:0:1:0,0,0,1,0,1,0,0,0,0,1,0,,,7,
0:0:0:1:1:0:1:0:1:0:1,0,0,0,1,1,0,1,0,1,0,1,,,7,
0:1:0:1:1:0:0:1:1:0:1,0,1,0,1,1,0,0,1,1,0,1,,,7,
1:1:1:1:1:0:0:1:0:1:1,1,1,1,1,1,0,0,1,0,1,1,,,7,
1:0:0:1:0:1:0:0:1:0:1,1,0,0,1,0,1,0,0,1,0,1,,,7,
1:1:0:1:0:1:0:1:1:1:0,1,1,0,1,0,1,0,1,1,1,0,,,7,
0:0:0:0:0:0:0:0:1:1:0,0,0,0,0,0,0,0,0,1,1,0,,,7,
1:0:0:0:0:0:0:0:1:0:1,1,0,0,0,0,0,0,0,1,0,1,,,7,
1:1:0:1:1:0:1:1:1:1:0,1,1,0,1,1,0,1,1,1,1,0,,,7,
1:1:0:1:1:0:0:0:1:1:1,1,1,0,1,1,0,0,0,1,1,1,,,7,
1:0:0:1:0:0:1:1:0:0:1,1,0,0,1,0,0,1,1,0,0,1,,,7,
1:0:0:1:0:1:0:1:1:1:1,1,0,0,1,0,1,0,1,1,1,1,,,7,
1:0:0:0:0:1:0:0:0:0:1,1,0,0,0,0,1,0,0,0,0,1,,,7,
0:1:0:1:1:0:1:1:1:0:0,0,1,0,1,1,0,1,1,1,0,0,,,7,
1:0:1:1:0:1:0:0:1:1:0,1,0,1,1,0,1,0,0,1,1,0,,,7,
0:1:0:0:1:0:0:0:0:1:0,0,1,0,0,1,0,0,0,0,1,0,,,6,
1:1:0:1:1:1:0:1:1:1:1,1,1,0,1,1,1,0,1,1,1,1,,,6,
0:0:1:1:1:0:0:1:1:1:1,0,0,1,1,1,0,0,1,1,1,1,,,6,
1:1:0:0:0:1:0:0:0:0:0,1,1,0,0,0,1,0,0,0,0,0,,,6,
0:0:1:0:1:0:0:1:0:0:0,0,0,1,0,1,0,0,1,0,0,0,,,6,
0:0:1:1:0:0:0:1:1:1:1,0,0,1,1,0,0,0,1,1,1,1,,,6,
0:1:1:1:1:0:0:1:0:1:1,0,1,1,1,1,0,0,1,0,1,1,,,6,
0:0:0:0:0:1:0:0:1:0:0,0,0,0,0,0,1,0,0,1,0,0,,,6,
1:1:1:1:1:0:0:1:0:0:0,1,1,1,1,1,0,0,1,0,0,0,,,6,
1:0:0:1:0:0:1:0:1:0:1,1,0,0,1,0,0,1,0,1,0,1,,,6,
0:1:1:1:1:0:0:0:0:1:1,0,1,1,1,1,0,0,0,0,1,1,,,6,
0:1:0:1:1:1:1:0:0:0:0,0,1,0,1,1,1,1,0,0,0,0,,,6,
0:1:1:1:1:1:0:1:1:1:0,0,1,1,1,1,1,0,1,1,1,0,,,6,
0:1:1:1:0:0:0:0:0:0:1,0,1,1,1,0,0,0,0,0,0,1,,,6,
1:1:0:0:1:0:1:0:1:0:0,1,1,0,0,1,0,1,0,1,0,0,,,6,
1:0:0:0:1:1:0:0:0:0:0,1,0,0,0,1,1,0,0,0,0,0,,,6,
1:1:0:1:1:0:1:0:0:1:0,1,1,0,1,1,0,1,0,0,1,0,,,6,
0:1:1:1:1:0:0:0:1:1:0,0,1,1,1,1,0,0,0,1,1,0,,,6,
1:0:0:1:1:0:1:0:1:0:1,1,0,0,1,1,0,1,0,1,0,1,,,6,
0:1:1:1:0:0:0:1:0:0:0,0,1,1,1,0,0,0,1,0,0,0,,,6,
0:0:0:0:1:0:1:1:1:0:0,0,0,0,0,1,0,1,1,1,0,0,,,6,
1:1:0:1:1:0:0:0:0:0:1,1,1,0,1,1,0,0,0,0,0,1,,,6,
1:0:0:0:1:0:0:0:0:1:0,1,0,0,0,1,0,0,0,0,1,0,,,6,
0:1:1:1:1:1:0:0:1:0:0,0,1,1,1,1,1,0,0,1,0,0,,,6,
1:1:1:1:0:0:1:1:0:1:1,1,1,1,1,0,0,1,1,0,1,1,,,6,
1:0:1:1:0:1:0:0:1:1:1,1,0,1,1,0,1,0,0,1,1,1,,,6,
1:0:1:1:0:1:1:0:0:1:1,1,0,1,1,0,1,1,0,0,1,1,,,6,
0:1:0:1:0:0:1:1:0:0:0,0,1,0,1,0,0,1,1,0,0,0,,,6,
1:0:1:1:0:1:0:0:0:0:0,1,0,1,1,0,1,0,0,0,0,0,,,6,
0:1:1:1:1:0:0:0:1:0:0,0,1,1,1,1,0,0,0,1,0,0,,,6,
0:0:1:1:1:1:0:0:1:1:0,0,0,1,1,1,1,0,0,1,1,0,,,5,
1:1:0:1:0:0:1:1:0:0:0,1,1,0,1,0,0,1,1,0,0,0,,,5,
0:0:1:0:0:0:0:1:0:0:0,0,0,1,0,0,0,0,1,0,0,0,,,5,
1:1:0:1:1:1:1:1:0:1:0,1,1,0,1,1,1,1,1,0,1,0,,,5,
0:0:0:1:1:1:1:0:0:0:0,0,0,0,1,1,1,1,0,0,0,0,,,5,
1:1:1:1:0:1:0:1:1:1:0,1,1,1,1,0,1,0,1,1,1,0,,,5,
1:0:1:1:1:1:0:1:0:1:0,1,0,1,1,1,1,0,1,0,1,0,,,5,
0:0:0:0:1:0:0:1:1:1:0,0,0,0,0,1,0,0,1,1,1,0,,,5,
1:1:0:1:0:0:1:1:0:1:0,1,1,0,1,0,0,1,1,0,1,0,,,5,
1:1:1:1:1:1:1:1:1:1:1,1,1,1,1,1,1,1,1,1,1,1,,,5,
1:0:1:1:0:0:0:0:1:0:1,1,0,1,1,0,0,0,0,1,0,1,,,5,
0:1:0:1:1:0:0:1:1:1:1,0,1,0,1,1,0,0,1,1,1,1,,,5,
1:0:1:1:0:0:0:1:1:1:1,1,0,1,1,0,0,0,1,1,1,1,,,5,
1:0:0:1:0:1:0:1:1:0:1,1,0,0,1,0,1,0,1,1,0,1,,,5,
1:1:0:1:1:1:0:1:0:0:1,1,1,0,1,1,1,0,1,0,0,1,,,5,
0:1:0:0:0:1:0:0:1:0:0,0,1,0,0,0,1,0,0,1,0,0,,,5,
1:0:0:0:0:1:0:0:0:1:1,1,0,0,0,0,1,0,0,0,1,1,,,5,
0:0:1:1:0:1:0:1:0:0:0,0,0,1,1,0,1,0,1,0,0,0,,,5,
0:1:0:1:1:0:1:0:0:0:0,0,1,0,1,1,0,1,0,0,0,0,,,5,
1:0:0:1:0:1:1:0:0:1:0,1,0,0,1,0,1,1,0,0,1,0,,,5,
0:0:1:1:0:0:0:0:1:1:1,0,0,1,1,0,0,0,0,1,1,1,,,5,
1:0:1:0:0:0:0:0:0:0:0,1,0,1,0,0,0,0,0,0,0,0,,,5,
1:1:0:1:1:1:0:1:0:1:0,1,1,0,1,1,1,0,1,0,1,0,,,5,
0:0:0:0:0:1:0:0:0:0:1,0,0,0,0,0,1,0,0,0,0,1,,,5,
0:1:0:1:0:1:1:1:0:0:0,0,1,0,1,0,1,1,1,0,0,0,,,5,
1:0:0:1:0:0:1:0:1:1:0,1,0,0,1,0,0,1,0,1,1,0,,,5,
1:0:0:1:0:0:1:1:0:1:1,1,0,0,1,0,0,1,1,0,1,1,,,5,
1:0:1:1:0:1:1:0:0:1:0,1,0,1,1,0,1,1,0,0,1,0,,,5,
0:0:0:1:0:0:1:1:1:0:0,0,0,0,1,0,0,1,1,1,0,0,,,5,
1:0:0:1:1:1:0:0:1:1:0,1,0,0,1,1,1,0,0,1,1,0,,,5,
1:1:0:1:0:1:0:1:0:1:1,1,1,0,1,0,1,0,1,0,1,1,,,5,
0:0:0:1:0:0:1:1:0:1:1,0,0,0,1,0,0,1,1,0,1,1,,,4,
1:0:0:1:0:1:1:1:0:1:1,1,0,0,1,0,1,1,1,0,1,1,,,4,
0:1:1:1:1:1:0:1:1:0:0,0,1,1,1,1,1,0,1,1,0,0,,,4,
0:0:1:0:0:0:0:1:0:1:0,0,0,1,0,0,0,0,1,0,1,0,,,4,
1:1:0:1:1:0:1:0:1:1:0,1,1,0,1,1,0,1,0,1,1,0,,,4,
0:1:1:1:1:0:1:1:0:1:0,0,1,1,1,1,0,1,1,0,1,0,,,4,
0:0:0:1:0:0:1:1:0:0:0,0,0,0,1,0,0,1,1,0,0,0,,,4,
1:1:1:1:1:1:0:1:0:1:0,1,1,1,1,1,1,0,1,0,1,0,,,4,
0:0:1:0:0:0:0:0:0:1:0,0,0,1,0,0,0,0,0,0,1,0,,,4,
1:1:0:1:1:1:1:1:0:0:0,1,1,0,1,1,1,1,1,0,0,0,,,4,
1:1:1:1:1:0:0:0:1:1:1,1,1,1,1,1,0,0,0,1,1,1,,,4,
1:1:0:1:0:1:0:1:0:0:1,1,1,0,1,0,1,0,1,0,0,1,,,4,
0:0:1:1:0:0:1:1:0:1:0,0,0,1,1,0,0,1,1,0,1,0,,,4,
0:1:1:1:0:1:0:0:0:1:1,0,1,1,1,0,1,0,0,0,1,1,,,4,
0:0:1:1:0:1:1:0:0:1:0,0,0,1,1,0,1,1,0,0,1,0,,,4,
1:0:1:1:1:1:0:0:0:0:1,1,0,1,1,1,1,0,0,0,0,1,,,4,
0:0:0:1:0:1:0:0:1:1:1,0,0,0,1,0,1,0,0,1,1,1,,,4,
1:1:0:1:0:1:1:0:1:0:0,1,1,0,1,0,1,1,0,1,0,0,,,4,
1:0:1:0:0:0:0:0:0:1:0,1,0,1,0,0,0,0,0,0,1,0,,,4,
1:0:0:0:0:0:0:1:0:1:1,1,0,0,0,0,0,0,1,0,1,1,,,4,
0:0:0:0:0:0:1:1:1:0:0,0,0,0,0,0,0,1,1,1,0,0,,,4,
0:0:0:0:1:1:0:1:0:1:0,0,0,0,0,1,1,0,1,0,1,0,,,4,
0:1:1:1:1:0:0:0:0:0:1,0,1,1,1,1,0,0,0,0,0,1,,,3,
0:1:0:1:1:0:1:0:1:0:0,0,1,0,1,1,0,1,0,1,0,0,,,3,
0:1:0:1:1:0:0:0:1:0:1,0,1,0,1,1,0,0,0,1,0,1,,,3,
0:0:1:0:1:0:0:1:0:1:0,0,0,1,0,1,0,0,1,0,1,0,,,3,
1:0:0:1:0:0:1:0:0:1:0,1,0,0,1,0,0,1,0,0,1,0,,,3,
0:0:0:0:0:1:1:0:0:1:0,0,0,0,0,0,1,1,0,0,1,0,,,3,
1:0:1:1:0:0:1:0:0:0:0,1,0,1,1,0,0,1,0,0,0,0,,,3,
1:1:0:1:1:0:0:0:1:0:1,1,1,0,1,1,0,0,0,1,0,1,,,3,
1:0:0:1:1:1:1:1:0:0:1,1,0,0,1,1,1,1,1,0,0,1,,,3,
1:1:1:1:0:0:0:1:0:0:0,1,1,1,1,0,0,0,1,0,0,0,,,3,
0:1:0:1:0:1:0:1:1:0:1,0,1,0,1,0,1,0,1,1,0,1,,,3,
0:0:1:1:0:1:0:0:0:0:1,0,0,1,1,0,1,0,0,0,0,1,,,3,
0:0:0:1:1:0:1:1:1:1:0,0,0,0,1,1,0,1,1,1,1,0,,,3,
1:0:1:1:0:0:1:1:0:1:1,1,0,1,1,0,0,1,1,0,1,1,,,3,
1:0:0:1:0:1:1:1:0:1:0,1,0,0,1,0,1,1,1,0,1,0,,,3,
1:1:0:1:0:1:1:1:0:0:0,1,1,0,1,0,1,1,1,0,0,0,,,3,
1:1:0:1:0:1:0:0:1:0:1,1,1,0,1,0,1,0,0,1,0,1,,,3,
1:0:1:1:1:0:0:0:1:0:1,1,0,1,1,1,0,0,0,1,0,1,,,3,
0:0:0:0:0:0:1:0:0:0:1,0,0,0,0,0,0,1,0,0,0,1,,,3,
0:0:0:1:1:1:0:0:1:0:1,0,0,0,1,1,1,0,0,1,0,1,,,3,
0:1:0:1:0:1:0:0:1:1:1,0,1,0,1,0,1,0,0,1,1,1,,,3,
1:1:1:1:0:0:0:1:0:0:1,1,1,1,1,0,0,0,1,0,0,1,,,3,
0:0:1:1:0:0:1:1:0:1:1,0,0,1,1,0,0,1,1,0,1,1,,,3,
1:1:0:0:1:0:0:1:1:0:0,1,1,0,0,1,0,0,1,1,0,0,,,3,
1:1:0:1:0:1:0:1:1:0:1,1,1,0,1,0,1,0,1,1,0,1,,,3,
1:1:1:1:1:0:0:0:0:0:0,1,1,1,1,1,0,0,0,0,0,0,,,3,
0:1:0:0:0:0:0:1:1:0:0,0,1,0,0,0,0,0,1,1,0,0,,,3,
1:1:1:1:0:1:0:1:0:1:0,1,1,1,1,0,1,0,1,0,1,0,,,3,
0:1:0:1:1:1:0:1:0:1:1,0,1,0,1,1,1,0,1,0,1,1,,,3,
1:1:1:1:0:1:0:0:0:0:1,1,1,1,1,0,1,0,0,0,0,1,,,3,
1:0:1:1:0:0:1:1:0:0:1,1,0,1,1,0,0,1,1,0,0,1,,,3,
0:0:1:1:1:0:1:1:0:0:0,0,0,1,1,1,0,1,1,0,0,0,,,3,
1:1:0:1:0:0:1:1:1:0:1,1,1,0,1,0,0,1,1,1,0,1,,,3,
0:0:0:1:1:1:0:1:1:1:1,0,0,0,1,1,1,0,1,1,1,1,,,3,
1:0:1:1:1:1:0:1:0:0:1,1,0,1,1,1,1,0,1,0,0,1,,,3,
0:0:0:0:0:0:1:0:0:1:0,0,0,0,0,0,0,1,0,0,1,0,,,3,
0:0:0:1:1:1:1:0:0:0:1,0,0,0,1,1,1,1,0,0,0,1,,,3,
0:0:0:1:1:0:1:0:0:1:0,0,0,0,1,1,0,1,0,0,1,0,,,3,
0:1:0:1:1:1:0:1:1:1:1,0,1,0,1,1,1,0,1,1,1,1,,,3,
0:0:0:0:0:0:0:1:1:1:1,0,0,0,0,0,0,0,1,1,1,1,,,3,
0:1:0:0:1:0:0:0:1:0:0,0,1,0,0,1,0,0,0,1,0,0,,,3,
1:0:0:1:1:1:0:0:1:1:1,1,0,0,1,1,1,0,0,1,1,1,,,3,
1:1:0:0:1:0:0:1:0:0:1,1,1,0,0,1,0,0,1,0,0,1,,,3,
1:0:0:1:1:1:0:1:1:1:0,1,0,0,1,1,1,0,1,1,1,0,,,3,
0:1:1:0:1:0:0:0:0:0:0,0,1,1,0,1,0,0,0,0,0,0,,,3,
1:0:1:1:0:0:1:0:0:1:0,1,0,1,1,0,0,1,0,0,1,0,,,3,
1:0:1:1:1:1:0:1:0:0:0,1,0,1,1,1,1,0,1,0,0,0,,,3,
0:0:1:0:0:0:0:0:0:0:1,0,0,1,0,0,0,0,0,0,0,1,,,3,
1:1:1:1:1:1:0:0:0:0:0,1,1,1,1,1,1,0,0,0,0,0,,,2,
0:1:0:1:1:1:0:0:1:0:1,0,1,0,1,1,1,0,0,1,0,1,,,2,
0:1:0:0:1:0:0:1:1:0:0,0,1,0,0,1,0,0,1,1,0,0,,,2,
0:0:0:1:1:1:1:1:0:0:0,0,0,0,1,1,1,1,1,0,0,0,,,2,
0:0:1:0:0:1:0:0:0:0:0,0,0,1,0,0,1,0,0,0,0,0,,,2,
1:1:0:1:1:1:1:1:0:1:1,1,1,0,1,1,1,1,1,0,1,1,,,2,
1:0:1:1:1:0:0:1:1:1:1,1,0,1,1,1,0,0,1,1,1,1,,,2,
1:0:1:1:1:1:0:0:1:1:0,1,0,1,1,1,1,0,0,1,1,0,,,2,
1:1:1:1:1:1:0:0:0:1:1,1,1,1,1,1,1,0,0,0,1,1,,,2,
0:0:1:1:0:0:1:0:0:0:1,0,0,1,1,0,0,1,0,0,0,1,,,2,
1:0:1:0:1:0:0:1:0:1:0,1,0,1,0,1,0,0,1,0,1,0,,,2,
0:1:0:0:0:0:0:1:0:0:1,0,1,0,0,0,0,0,1,0,0,1,,,2,
0:0:0:0:0:0:0:0:1:1:1,0,0,0,0,0,0,0,0,1,1,1,,,2,
1:0:0:1:0:1:1:0:0:0:0,1,0,0,1,0,1,1,0,0,0,0,,,2,
0:0:1:1:0:1:0:1:0:1:1,0,0,1,1,0,1,0,1,0,1,1,,,2,
0:1:1:1:0:1:0:1:0:0:1,0,1,1,1,0,1,0,1,0,0,1,,,2,
1:0:1:1:1:1:0:1:1:1:0,1,0,1,1,1,1,0,1,1,1,0,,,2,
0:0:0:1:1:1:1:1:1:1:0,0,0,0,1,1,1,1,1,1,1,0,,,2,
1:1:0:1:0:1:1:1:1:0:0,1,1,0,1,0,1,1,1,1,0,0,,,2,
1:0:0:1:1:0:1:0:1:1:0,1,0,0,1,1,0,1,0,1,1,0,,,2,
1:1:0:1:1:1:0:1:1:0:1,1,1,0,1,1,1,0,1,1,0,1,,,2,
1:1:1:1:0:0:1:0:0:1:0,1,1,1,1,0,0,1,0,0,1,0,,,2,
0:0:1:1:0:0:1:0:0:1:1,0,0,1,1,0,0,1,0,0,1,1,,,2,
0:0:1:0:0:0:0:0:1:0:0,0,0,1,0,0,0,0,0,1,0,0,,,2,
1:0:1:1:0:1:1:0:0:0:0,1,0,1,1,0,1,1,0,0,0,0,,,2,
0:1:1:1:0:1:1:0:0:1:0,0,1,1,1,0,1,1,0,0,1,0,,,2,
0:1:1:1:1:0:1:1:0:1:1,0,1,1,1,1,0,1,1,0,1,1,,,2,
0:0:0:1:1:0:1:1:1:0:1,0,0,0,1,1,0,1,1,1,0,1,,,2,
0:1:1:1:0:1:0:0:1:0:1,0,1,1,1,0,1,0,0,1,0,1,,,2,
0:1:1:1:1:1:1:0:0:1:0,0,1,1,1,1,1,1,0,0,1,0,,,2,
1:0:1:1:0:0:1:0:0:0:1,1,0,1,1,0,0,1,0,0,0,1,,,2,
0:0:0:0:1:0:0:0:1:1:0,0,0,0,0,1,0,0,0,1,1,0,,,2,
1:0:0:0:0:0:0:1:1:1:1,1,0,0,0,0,0,0,1,1,1,1,,,2,
1:0:1:1:0:1:1:0:1:1:0,1,0,1,1,0,1,1,0,1,1,0,,,2,
1:0:1:1:0:1:0:1:0:1:0,1,0,1,1,0,1,0,1,0,1,0,,,2,
0:1:0:1:0:0:1:0:0:0:1,0,1,0,1,0,0,1,0,0,0,1,,,2,
1:1:1:1:0:1:0:0:1:1:0,1,1,1,1,0,1,0,0,1,1,0,,,2,
1:1:0:1:1:1:0:0:0:1:1,1,1,0,1,1,1,0,0,0,1,1,,,2,
0:0:1:1:1:1:0:0:0:1:1,0,0,1,1,1,1,0,0,0,1,1,,,2,
1:1:1:1:1:1:0:1:1:1:0,1,1,1,1,1,1,0,1,1,1,0,,,2,
1:1:0:1:1:1:1:0:1:0:0,1,1,0,1,1,1,1,0,1,0,0,,,2,
0:1:0:0:0:0:0:0:0:1:1,0,1,0,0,0,0,0,0,0,1,1,,,2,
1:0:1:0:1:0:1:1:0:0:0,1,0,1,0,1,0,1,1,0,0,0,,,2,
1:0:0:1:1:1:1:1:0:1:1,1,0,0,1,1,1,1,1,0,1,1,,,2,
0:1:0:0:0:0:0:1:0:1:0,0,1,0,0,0,0,0,1,0,1,0,,,2,
0:1:0:1:0:0:1:0:1:1:0,0,1,0,1,0,0,1,0,1,1,0,,,2,
1:1:1:1:1:0:1:1:1:1:0,1,1,1,1,1,0,1,1,1,1,0,,,2,
0:0:1:1:0:1:0:0:1:0:0,0,0,1,1,0,1,0,0,1,0,0,,,2,
0:1:1:1:0:1:0:1:1:0:0,0,1,1,1,0,1,0,1,1,0,0,,,2,
1:0:1:1:1:1:0:0:0:0:0,1,0,1,1,1,1,0,0,0,0,0,,,2,
0:1:0:1:1:1:1:1:1:1:0,0,1,0,1,1,1,1,1,1,1,0,,,2,
0:0:1:1:0:0:1:0:1:0:1,0,0,1,1,0,0,1,0,1,0,1,,,2,
1:1:1:1:0:0:0:0:0:0:1,1,1,1,1,0,0,0,0,0,0,1,,,2,
1:1:0:1:1:1:1:0:0:0:0,1,1,0,1,1,1,1,0,0,0,0,,,2,
0:0:0:0:1:1:1:0:0:0:0,0,0,0,0,1,1,1,0,0,0,0,,,2,
1:1:0:0:0:0:0:1:0:0:0,1,1,0,0,0,0,0,1,0,0,0,,,2,
0:0:1:1:1:1:0:1:0:1:1,0,0,1,1,1,1,0,1,0,1,1,,,2,
1:0:1:1:1:0:1:0:0:0:0,1,0,1,1,1,0,1,0,0,0,0,,,2,
1:1:1:1:1:1:0:0:1:1:0,1,1,1,1,1,1,0,0,1,1,0,,,2,
0:1:0:1:1:0:1:0:0:1:0,0,1,0,1,1,0,1,0,0,1,0,,,2,
1:0:0:0:0:0:0:1:0:1:0,1,0,0,0,0,0,0,1,0,1,0,,,2,
0:1:1:1:0:0:1:1:0:1:0,0,1,1,1,0,0,1,1,0,1,0,,,2,
1:1:0:0:1:0:0:0:1:0:0,1,1,0,0,1,0,0,0,1,0,0,,,2,
1:0:0:1:0:0:1:0:1:1:1,1,0,0,1,0,0,1,0,1,1,1,,,2,
1:1:0:1:1:1:1:1:1:1:0,1,1,0,1,1,1,1,1,1,1,0,,,2,
0:0:1:1:0:0:1:0:1:1:1,0,0,1,1,0,0,1,0,1,1,1,,,2,
1:1:0:0:0:0:1:1:0:0:0,1,1,0,0,0,0,1,1,0,0,0,,,2,
1:0:0:1:1:1:1:1:1:0:0,1,0,0,1,1,1,1,1,1,0,0,,,2,
0:1:1:1:0:0:0:1:1:0:1,0,1,1,1,0,0,0,1,1,0,1,,,2,
0:1:0:0:1:0:0:1:0:1:0,0,1,0,0,1,0,0,1,0,1,0,,,2,
1:0:1:1:1:0:1:0:0:1:0,1,0,1,1,1,0,1,0,0,1,0,,,2,
0:1:1:1:0:1:1:0:0:0:0,0,1,1,1,0,1,1,0,0,0,0,,,2,
1:1:1:1:0:1:0:1:0:0:0,1,1,1,1,0,1,0,1,0,0,0,,,2,
0:0:0:0:1:0:0:1:1:0:1,0,0,0,0,1,0,0,1,1,0,1,,,2,
0:0:0:0:1:1:1:1:0:0:0,0,0,0,0,1,1,1,1,0,0,0,,,2,
0:0:0:0:1:1:0:0:0:1:1,0,0,0,0,1,1,0,0,0,1,1,,,2,
0:1:0:1:0:1:1:0:0:0:1,0,1,0,1,0,1,1,0,0,0,1,,,2,
1:0:0:0:1:0:1:0:0:1:0,1,0,0,0,1,0,1,0,0,1,0,,,2,
1:0:1:0:0:0:0:1:0:0:0,1,0,1,0,0,0,0,1,0,0,0,,,2,
1:1:0:1:0:1:0:0:1:1:1,1,1,0,1,0,1,0,0,1,1,1,,,2,
1:1:0:1:0:1:1:1:1:1:1,1,1,0,1,0,1,1,1,1,1,1,,,2,
1:1:1:1:0:1:0:0:1:0:0,1,1,1,1,0,1,0,0,1,0,0,,,2,
1:1:1:1:1:0:0:0:0:1:1,1,1,1,1,1,0,0,0,0,1,1,,,2,
0:1:0:1:0:0:1:1:0:1:0,0,1,0,1,0,0,1,1,0,1,0,,,1,
1:0:1:0:1:1:0:0:0:1:0,1,0,1,0,1,1,0,0,0,1,0,,,1,
0:1:1:1:1:1:0:1:0:1:1,0,1,1,1,1,1,0,1,0,1,1,,,1,
0:0:1:1:1:0:1:0:1:1:1,0,0,1,1,1,0,1,0,1,1,1,,,1,
0:0:0:0:0:0:1:1:1:1:0,0,0,0,0,0,0,1,1,1,1,0,,,1,
1:1:0:1:0:0:1:1:0:0:1,1,1,0,1,0,0,1,1,0,0,1,,,1,
1:1:0:1:0:0:1:0:0:1:1,1,1,0,1,0,0,1,0,0,1,1,,,1,
0:0:0:1:1:1:1:1:0:0:1,0,0,0,1,1,1,1,1,0,0,1,,,1,
0:1:1:1:1:0:0:1:1:1:1,0,1,1,1,1,0,0,1,1,1,1,,,1,
1:0:1:0:0:0:0:0:0:0:1,1,0,1,0,0,0,0,0,0,0,1,,,1,
1:1:1:1:1:0:1:1:1:0:1,1,1,1,1,1,0,1,1,1,0,1,,,1,
1:1:1:1:0:1:1:1:0:1:0,1,1,1,1,0,1,1,1,0,1,0,,,1,
1:0:1:1:1:1:0:0:1:1:1,1,0,1,1,1,1,0,0,1,1,1,,,1,
0:1:0:1:0:0:1:1:0:0:1,0,1,0,1,0,0,1,1,0,0,1,,,1,
0:1:0:1:1:0:1:1:1:1:1,0,1,0,1,1,0,1,1,1,1,1,,,1,
1:0:1:1:1:1:1:0:0:1:0,1,0,1,1,1,1,1,0,0,1,0,,,1,
1:0:1:1:0:0:0:1:1:0:1,1,0,1,1,0,0,0,1,1,0,1,,,1,
0:1:1:1:1:1:0:1:0:0:1,0,1,1,1,1,1,0,1,0,0,1,,,1,
0:1:0:0:1:1:1:0:0:0:0,0,1,0,0,1,1,1,0,0,0,0,,,1,
0:1:1:0:0:0:0:0:1:0:0,0,1,1,0,0,0,0,0,1,0,0,,,1,
0:0:1:1:1:1:1:1:0:1:0,0,0,1,1,1,1,1,1,0,1,0,,,1,
0:0:0:1:0:1:1:1:0:1:1,0,0,0,1,0,1,1,1,0,1,1,,,1,
0:1:1:1:0:0:1:1:1:1:0,0,1,1,1,0,0,1,1,1,1,0,,,1,
0:1:0:1:0:1:1:0:0:1:0,0,1,0,1,0,1,1,0,0,1,0,,,1,
0:0:1:1:1:1:1:0:0:1:0,0,0,1,1,1,1,1,0,0,1,0,,,1,
0:0:1:1:1:0:1:1:0:0:1,0,0,1,1,1,0,1,1,0,0,1,,,1,
1:0:0:0:0:0:1:0:0:0:1,1,0,0,0,0,0,1,0,0,0,1,,,1,
0:0:0:1:0:1:1:0:1:1:0,0,0,0,1,0,1,1,0,1,1,0,,,1,
0:0:1:1:0:1:0:0:1:1:1,0,0,1,1,0,1,0,0,1,1,1,,,1,
0:0:1:1:0:0:1:1:1:0:0,0,0,1,1,0,0,1,1,1,0,0,,,1,
1:1:1:1:0:0:0:0:1:0:1,1,1,1,1,0,0,0,0,1,0,1,,,1,
1:0:0:0:0:1:0:1:0:1:1,1,0,0,0,0,1,0,1,0,1,1,,,1,
1:1:0:1:0:1:1:0:1:1:0,1,1,0,1,0,1,1,0,1,1,0,,,1,
0:0:1:1:0:0:1:0:0:1:0,0,0,1,1,0,0,1,0,0,1,0,,,1,
1:1:0:0:0:0:0:0:1:1:0,1,1,0,0,0,0,0,0,1,1,0,,,1,
1:0:1:0:0:0:0:0:1:0:0,1,0,1,0,0,0,0,0,1,0,0,,,1,
0:0:1:1:1:1:0:0:1:0:0,0,0,1,1,1,1,0,0,1,0,0,,,1,
1:0:0:1:1:1:0:0:1:0:1,1,0,0,1,1,1,0,0,1,0,1,,,1,
0:0:0:0:0:0:1:1:0:0:0,0,0,0,0,0,0,1,1,0,0,0,,,1,
0:0:0:0:1:0:0:0:0:1:1,0,0,0,0,1,0,0,0,0,1,1,,,1,
1:1:0:0:0:0:0:0:0:0:1,1,1,0,0,0,0,0,0,0,0,1,,,1,
1:0:1:0:1:0:1:0:1:0:0,1,0,1,0,1,0,1,0,1,0,0,,,1,
1:0:1:0:1:0:1:1:1:0:0,1,0,1,0,1,0,1,1,1,0,0,,,1,
0:0:1:1:0:1:0:1:1:0:0,0,0,1,1,0,1,0,1,1,0,0,,,1,
1:0:1:1:1:1:0:1:0:1:1,1,0,1,1,1,1,0,1,0,1,1,,,1,
1:0:1:1:1:0:1:1:1:0:1,1,0,1,1,1,0,1,1,1,0,1,,,1,
1:0:1:0:1:0:0:0:1:1:0,1,0,1,0,1,0,0,0,1,1,0,,,1,
1:1:0:0:0:0:0:0:0:1:1,1,1,0,0,0,0,0,0,0,1,1,,,1,
1:0:1:1:0:1:1:0:1:1:1,1,0,1,1,0,1,1,0,1,1,1,,,1,
1:1:0:1:0:1:1:1:1:0:1,1,1,0,1,0,1,1,1,1,0,1,,,1,
0:0:0:1:0:1:0:1:1:0:1,0,0,0,1,0,1,0,1,1,0,1,,,1,
1:1:0:1:0:1:1:1:0:1:0,1,1,0,1,0,1,1,1,0,1,0,,,1,
1:1:0:1:1:1:0:1:0:1:1,1,1,0,1,1,1,0,1,0,1,1,,,1,
1:1:0:1:1:1:1:1:0:0:1,1,1,0,1,1,1,1,1,0,0,1,,,1,
0:0:0:1:0:1:1:0:1:0:0,0,0,0,1,0,1,1,0,1,0,0,,,1,
1:0:0:1:1:1:1:0:0:0:1,1,0,0,1,1,1,1,0,0,0,1,,,1,
1:0:0:1:1:1:0:1:1:0:1,1,0,0,1,1,1,0,1,1,0,1,,,1,
0:1:1:1:1:1:0:0:1:0:1,0,1,1,1,1,1,0,0,1,0,1,,,1,
0:0:0:1:0:1:1:1:0:1:0,0,0,0,1,0,1,1,1,0,1,0,,,1,
1:0:0:0:0:1:0:0:1:0:1,1,0,0,0,0,1,0,0,1,0,1,,,1,
1:0:0:0:1:0:0:1:0:1:1,1,0,0,0,1,0,0,1,0,1,1,,,1,
1:1:1:1:1:0:1:0:0:0:0,1,1,1,1,1,0,1,0,0,0,0,,,1,
1:1:1:0:0:0:0:0:0:1:1,1,1,1,0,0,0,0,0,0,1,1,,,1,
1:0:1:0:1:0:0:1:1:0:0,1,0,1,0,1,0,0,1,1,0,0,,,1,
1:0:1:0:1:0:1:1:0:0:1,1,0,1,0,1,0,1,1,0,0,1,,,1,
1:0:1:0:0:1:0:0:0:1:1,1,0,1,0,0,1,0,0,0,1,1,,,1,
1:1:1:1:0:1:0:1:1:0:0,1,1,1,1,0,1,0,1,1,0,0,,,1,
1:1:1:1:1:0:1:1:0:1:0,1,1,1,1,1,0,1,1,0,1,0,,,1,
1:1:1:1:0:0:1:1:0:0:1,1,1,1,1,0,0,1,1,0,0,1,,,1,
1:1:1:1:0:0:1:1:0:0:0,1,1,1,1,0,0,1,1,0,0,0,,,1,
1:0:0:0:0:1:0:1:0:0:0,1,0,0,0,0,1,0,1,0,0,0,,,1,
1:0:0:1:1:1:1:1:0:1:0,1,0,0,1,1,1,1,1,0,1,0,,,1,
0:1:0:1:0:1:1:1:1:0:0,0,1,0,1,0,1,1,1,1,0,0,,,1,
0:1:0:1:1:1:1:1:1:0:0,0,1,0,1,1,1,1,1,1,0,0,,,1,
0:0:1:1:1:0:1:1:1:1:0,0,0,1,1,1,0,1,1,1,1,0,,,1,
0:1:0:1:1:1:0:1:0:0:1,0,1,0,1,1,1,0,1,0,0,1,,,1,
0:1:1:1:0:0:1:1:0:0:0,0,1,1,1,0,0,1,1,0,0,0,,,1,
0:0:1:1:0:1:0:1:1:1:0,0,0,1,1,0,1,0,1,1,1,0,,,1,
0:1:0:1:0:0:1:1:0:1:1,0,1,0,1,0,0,1,1,0,1,1,,,1,
0:0:1:1:0:0:1:1:0:0:0,0,0,1,1,0,0,1,1,0,0,0,,,1,
1:0:0:1:0:1:1:1:1:1:1,1,0,0,1,0,1,1,1,1,1,1,,,1,
1:1:1:1:1:1:1:1:0:0:0,1,1,1,1,1,1,1,1,0,0,0,,,1,
0:0:0:1:0:1:1:0:0:1:1,0,0,0,1,0,1,1,0,0,1,1,,,1,
0:1:0:0:1:0:1:1:0:0:0,0,1,0,0,1,0,1,1,0,0,0,,,1,
0:1:0:1:0:0:1:1:1:1:0,0,1,0,1,0,0,1,1,1,1,0,,,1,
1:1:0:1:1:1:0:0:0:0:1,1,1,0,1,1,1,0,0,0,0,1,,,1,
1:0:0:0:1:0:0:1:1:0:1,1,0,0,0,1,0,0,1,1,0,1,,,1,
0:1:1:1:1:0:1:1:1:1:1,0,1,1,1,1,0,1,1,1,1,1,,,1,
0:0:0:1:0:1:0:1:1:1:1,0,0,0,1,0,1,0,1,1,1,1,,,1,
0:1:1:1:0:0:1:0:1:0:0,0,1,1,1,0,0,1,0,1,0,0,,,1,
0:1:0:1:1:1:0:1:1:0:1,0,1,0,1,1,1,0,1,1,0,1,,,1,
0:1:1:1:1:0:0:0:1:1:1,0,1,1,1,1,0,0,0,1,1,1,,,1,
0:1:1:1:1:1:0:1:1:0:1,0,1,1,1,1,1,0,1,1,0,1,,,1,
0:0:0:0:0:1:0:1:0:0:1,0,0,0,0,0,1,0,1,0,0,1,,,1,
0:1:0:1:0:1:0:1:1:1:1,0,1,0,1,0,1,0,1,1,1,1,,,1,
1:0:1:1:0:1:0:1:1:0:0,1,0,1,1,0,1,0,1,1,0,0,,,1,
1:0:1:1:0:0:1:0:0:1:1,1,0,1,1,0,0,1,0,0,1,1,,,1,
0:1:0:0:0:1:0:0:1:1:0,0,1,0,0,0,1,0,0,1,1,0,,,1,
0:0:1:0:0:1:0:0:0:1:0,0,0,1,0,0,1,0,0,0,1,0,,,1,
1:1:0:0:0:0:0:1:0:0:1,1,1,0,0,0,0,0,1,0,0,1,,,1,
0:1:1:1:0:0:0:1:0:0:1,0,1,1,1,0,0,0,1,0,0,1,,,1,
1:1:0:0:1:0:1:0:0:0:1,1,1,0,0,1,0,1,0,0,0,1,,,1,
1:0:1:1:1:0:1:1:0:0:1,1,0,1,1,1,0,1,1,0,0,1,,,1,
1:1:1:1:0:1:1:1:1:1:1,1,1,1,1,0,1,1,1,1,1,1,,,1,
1:1:0:0:0:0:0:1:1:0:0,1,1,0,0,0,0,0,1,1,0,0,,,1,
1:0:0:1:0:0:1:1:1:0:1,1,0,0,1,0,0,1,1,1,0,1,,,1,
0:1:1:0:1:0:0:1:0:1:0,0,1,1,0,1,0,0,1,0,1,0,,,1,
1:1:0:1:0:1:1:0:0:1:0,1,1,0,1,0,1,1,0,0,1,0,,,1,
0:0:0:1:1:1:0:0:1:1:1,0,0,0,1,1,1,0,0,1,1,1,,,1,
1:1:1:1:1:0:1:1:0:0:0,1,1,1,1,1,0,1,1,0,0,0,,,1,
1:1:1:1:1:0:1:1:0:0:1,1,1,1,1,1,0,1,1,0,0,1,,,1,
1:0:0:1:0:0:1:1:0:1:0,1,0,0,1,0,0,1,1,0,1,0,,,1,
0:1:0:1:1:0:1:1:1:0:1,0,1,0,1,1,0,1,1,1,0,1,,,1,
0:0:1:0:1:0:0:1:1:0:1,0,0,1,0,1,0,0,1,1,0,1,,,1,
0:1:0:1:0:0:1:0:1:0:0,0,1,0,1,0,0,1,0,1,0,0,,,1,
1:0:0:0:1:0:1:1:1:1:0,1,0,0,0,1,0,1,1,1,1,0,,,1,
1:1:0:1:0:1:1:0:1:0:1,1,1,0,1,0,1,1,0,1,0,1,,,1,
0:0:0:1:1:0:1:0:0:1:1,0,0,0,1,1,0,1,0,0,1,1,,,1,
0:0:0:1:0:1:1:0:0:0:1,0,0,0,1,0,1,1,0,0,0,1,,,1,
0:0:0:1:1:1:0:1:1:0:1,0,0,0,1,1,1,0,1,1,0,1,,,1,
0:1:0:1:1:1:1:1:0:0:0,0,1,0,1,1,1,1,1,0,0,0,,,1,
0:0:0:1:0:0:1:0:1:1:1,0,0,0,1,0,0,1,0,1,1,1,,,1,
0:0:1:1:1:0:1:0:1:0:0,0,0,1,1,1,0,1,0,1,0,0,,,1,
1:1:0:1:1:1:0:0:1:1:1,1,1,0,1,1,1,0,0,1,1,1,,,1,
0:1:0:1:1:0:1:1:0:1:1,0,1,0,1,1,0,1,1,0,1,1,,,1,
1:0:0:0:0:0:1:1:1:0:0,1,0,0,0,0,0,1,1,1,0,0,,,1,
1:1:0:0:0:1:0:0:1:0:0,1,1,0,0,0,1,0,0,1,0,0,,,1,
0:1:0:0:1:0:0:1:1:1:0,0,1,0,0,1,0,0,1,1,1,0,,,1,
0:1:0:1:1:0:0:0:1:1:1,0,1,0,1,1,0,0,0,1,1,1,,,1,
0:0:0:0:1:1:0:0:0:0:1,0,0,0,0,1,1,0,0,0,0,1,,,1,
0:1:0:1:1:0:1:1:0:1:0,0,1,0,1,1,0,1,1,0,1,0,,,1,
1:1:1:1:1:1:0:1:0:0:0,1,1,1,1,1,1,0,1,0,0,0,,,1,
0:0:0:1:1:0:1:1:0:1:1,0,0,0,1,1,0,1,1,0,1,1,,,1,
0:1:0:0:0:0:0:1:1:1:1,0,1,0,0,0,0,0,1,1,1,1,,,1,
1:0:0:0:1:0:0:1:1:1:0,1,0,0,0,1,0,0,1,1,1,0,,,1,
0:0:1:1:0:0:1:1:1:1:1,0,0,1,1,0,0,1,1,1,1,1,,,1,
1:1:1:1:0:0:0:1:1:0:1,1,1,1,1,0,0,0,1,1,0,1,,,1,
1:0:0:1:1:1:0:1:1:1:1,1,0,0,1,1,1,0,1,1,1,1,,,1,
0:1:0:1:1:1:1:1:0:0:1,0,1,0,1,1,1,1,1,0,0,1,,,1,
0:1:0:1:1:1:1:0:0:1:0,0,1,0,1,1,1,1,0,0,1,0,,,1,
0:0:0:0:1:1:0:1:1:0:0,0,0,0,0,1,1,0,1,1,0,0,,,1,
0:0:1:1:1:0:1:1:0:1:0,0,0,1,1,1,0,1,1,0,1,0,,,1,
1:0:1:0:0:0:0:1:0:0:1,1,0,1,0,0,0,0,1,0,0,1,,,1,
1:1:0:1:1:1:1:0:1:1:0,1,1,0,1,1,1,1,0,1,1,0,,,1,
0:0:0:1:1:1:1:0:0:1:0,0,0,0,1,1,1,1,0,0,1,0,,,1,
1:0:1:1:0:1:1:0:0:0:1,1,0,1,1,0,1,1,0,0,0,1,,,1,
1:0:0:1:1:0:1:0:0:1:1,1,0,0,1,1,0,1,0,0,1,1,,,1,
0:1:1:1:0:0:1:0:1:1:1,0,1,1,1,0,0,1,0,1,1,1,,,1,
0:1:1:1:0:1:0:1:0:1:1,0,1,1,1,0,1,0,1,0,1,1,,,1,
0:1:0:1:0:0:1:0:0:1:1,0,1,0,1,0,0,1,0,0,1,1,,,1,
1:1:0:0:0:0:1:0:1:0:0,1,1,0,0,0,0,1,0,1,0,0,,,1,
1:0:0:0:0:1:1:1:0:0:0,1,0,0,0,0,1,1,1,0,0,0,,,1,
0:1:1:1:1:0:1:1:0:0:1,0,1,1,1,1,0,1,1,0,0,1,,,1,
1:0:0:1:0:1:1:1:1:0:0,1,0,0,1,0,1,1,1,1,0,0,,,1,
1:0:1:1:0:0:1:0:1:0:1,1,0,1,1,0,0,1,0,1,0,1,,,1,
1:0:0:1:0:1:1:0:1:0:0,1,0,0,1,0,1,1,0,1,0,0,,,1,
1:1:1:1:1:0:0:1:0:0:1,1,1,1,1,1,0,0,1,0,0,1,,,1,
0:0:0:0:1:1:0:0:1:0:0,0,0,0,0,1,1,0,0,1,0,0,,,1,
0:1:1:1:1:0:0:0:1:0:1,0,1,1,1,1,0,0,0,1,0,1,,,1,
1:0:1:0:0:0:0:0:1:1:0,1,0,1,0,0,0,0,0,1,1,0,,,1,