fsc:ssc:ly6c:cd3e:cd11c:cd45:cd11b:cd4:ly6g:f480:cd49b:cd8:b220
1:1:1:0:0:1:0:0:0:0:1:1:0
1:1:0:1:1:1:1:1:0:0:1:1:0
1:1:0:0:0:1:1:0:1:1:1:0:1
1:1:1:0:0:0:1:0:0:0:0:0:0
1:1:1:0:0:1:1:0:1:0:0:1:1
1:1:1:0:1:1:0:1:0:1:0:1:0
1:1:1:0:0:0:0:0:0:0:1:0:0
1:1:0:0:0:1:1:1:0:0:0:1:0
1:1:1:1:0:0:1:0:0:0:0:0:0
1:1:0:0:0:0:1:0:1:0:0:0:0
1:1:0:1:0:0:1:0:0:1:1:0:0
1:1:1:0:0:1:0:0:0:0:1:0:0
1:1:0:1:0:1:0:1:0:1:1:0:1
1:1:1:1:0:1:0:1:1:0:1:1:0
1:1:0:0:0:0:1:0:1:1:1:0:0
1:1:1:0:0:1:0:1:1:0:0:0:1
1:1:1:1:0:1:0:1:0:0:0:0:0
1:1:0:0:0:0:1:0:1:1:0:0:1
1:1:1:0:1:1:0:0:0:0:1:0:1
1:1:0:0:1:1:1:0:0:0:1:0:1
0:1:0:0:1:1:1:0:0:0:0:0:0
1:1:1:1:0:1:0:1:0:1:1:0:0
1:1:1:1:1:1:0:0:1:1:0:0:1
0:1:0:1:0:1:0:0:0:1:0:0:0
1:1:1:0:0:0:1:0:1:0:0:1:0
1:1:1:0:0:1:1:1:1:1:0:1:0
1:1:1:0:1:1:1:1:0:1:0:1:1
1:1:1:1:0:1:1:0:1:1:1:0:1
1:1:1:1:0:1:1:1:0:0:1:0:0
1:1:1:1:0:0:1:0:0:1:1:0:0
1:1:0:1:1:1:0:0:1:0:1:1:1
0:1:0:1:0:1:0:1:0:0:0:0:0
1:1:1:1:0:1:1:0:1:1:0:1:1
1:1:0:0:1:1:1:0:0:1:0:0:1
1:1:1:1:0:1:1:1:1:1:0:0:1
0:1:1:0:0:1:0:0:0:0:0:0:0
1:1:0:0:1:1:1:0:0:1:0:1:1
1:1:0:0:0:0:1:0:0:0:1:1:0
1:1:0:0:1:0:0:0:0:1:0:1:0
1:1:0:0:0:1:1:1:0:0:0:1:1
1:1:1:0:1:1:1:0:0:0:0:0:1
1:1:1:1:0:1:0:0:0:0:0:1:0
1:1:1:0:0:1:0:1:0:1:1:0:0
1:1:0:0:0:1:0:1:0:0:1:1:1
1:1:0:1:0:1:1:0:0:0:1:0:0
1:1:0:0:1:0:0:0:0:0:0:1:0
1:1:1:1:0:1:0:1:1:1:1:0:1
1:1:0:0:1:1:0:0:1:1:1:1:1
1:1:0:0:0:1:0:1:0:1:0:1:1
1:1:1:1:0:1:1:0:1:1:1:1:1
1:1:0:1:1:1:0:0:0:1:0:0:1
1:1:0:0:0:1:1:0:1:1:1:0:0
1:1:1:1:0:1:0:0:1:1:1:1:1
1:1:1:1:0:1:1:1:1:1:1:1:0
1:1:0:1:0:1:0:1:0:1:0:0:0
1:1:0:0:0:1:1:0:1:1:0:1:1
1:1:0:1:1:1:0:0:1:1:1:1:0
1:1:0:1:0:1:1:0:0:1:1:0:1
1:1:1:0:1:1:0:0:0:0:0:0:1
1:1:0:1:1:1:1:0:0:0:0:0:1
1:1:1:1:0:1:0:0:0:1:1:1:0
1:1:0:0:0:1:0:0:0:0:0:0:0
1:1:0:1:1:1:1:0:0:1:1:1:0
1:1:1:0:0:0:1:0:1:0:0:0:0
1:1:1:0:0:1:0:1:0:0:0:1:1
1:1:0:0:0:0:1:0:0:0:0:0:0
1:1:1:1:0:1:1:1:1:0:1:0:0
0:1:0:0:0:1:1:0:0:0:1:0:0
0:1:0:1:0:1:0:0:0:0:1:1:0
1:1:1:0:0:0:1:0:0:1:0:1:1
1:1:1:0:0:1:1:1:1:1:0:0:1
1:1:0:1:1:1:0:1:1:0:0:1:0
0:1:0:0:0:0:0:0:0:0:0:0:0
1:1:0:1:1:1:1:0:0:1:1:1:1
1:1:1:1:0:1:1:1:0:0:0:1:1
1:1:0:0:0:0:0:0:0:1:0:0:0
0:1:1:0:0:0:1:0:0:1:0:0:0
1:1:0:1:1:1:1:0:0:1:0:1:1
1:1:1:0:0:1:0:0:1:0:0:0:1
1:1:1:1:0:1:0:0:0:0:1:0:0
1:1:0:0:0:0:1:0:1:1:0:0:0
0:1:0:0:0:1:0:1:0:1:0:1:0
1:1:0:0:1:1:1:0:0:0:0:0:0
1:1:0:0:0:0:0:0:1:0:0:0:0
1:1:1:0:0:1:0:0:0:1:1:0:0
0:1:0:0:0:1:0:0:0:0:1:0:1
1:1:0:0:1:1:0:1:1:0:0:1:0
1:1:0:0:1:1:1:1:0:0:0:1:1
1:1:1:1:0:1:0:0:1:0:1:1:0
1:1:1:0:0:1:1:0:0:1:0:1:1
1:1:0:0:1:1:0:0:0:0:0:1:0
1:1:0:1:0:1:0:0:0:1:1:1:1
1:1:1:0:0:1:0:1:1:1:1:1:1
1:1:1:0:0:1:1:1:0:0:0:1:1
1:1:1:0:0:0:1:0:0:0:0:1:0
1:1:0:1:0:1:0:0:0:0:0:0:1
1:1:1:0:0:1:1:0:0:1:0:0:0
1:1:0:0:0:1:0:0:0:0:1:1:0
1:1:0:1:0:1:0:1:0:0:0:0:0
1:1:0:0:1:1:0:1:0:1:1:0:0
1:1:0:0:1:1:1:0:1:0:1:0:0
0:1:1:1:0:1:0:0:0:0:1:1:0
1:1:0:1:1:1:0:1:0:1:0:1:1
1:1:0:0:0:1:1:1:0:1:0:1:1
1:1:0:0:1:1:0:0:0:0:0:0:1
1:1:0:1:0:1:1:1:0:1:1:1:0
1:1:0:0:0:1:0:1:0:1:0:1:0
1:1:1:1:1:1:1:1:0:1:0:0:0
1:1:0:1:0:1:1:0:1:0:0:0:0
1:1:1:0:1:0:1:0:0:1:0:0:0
1:1:1:0:0:1:1:0:0:1:0:0:1
1:1:0:1:1:1:0:0:0:0:1:1:1
1:1:1:0:0:1:1:1:0:0:1:0:0
1:1:0:1:0:1:0:1:0:0:1:1:1
1:1:0:0:0:0:1:0:0:0:0:0:1
1:1:1:0:1:1:0:0:1:1:0:1:1
1:1:1:1:1:1:1:0:0:0:1:1:0
1:1:1:0:0:0:1:0:1:1:0:1:0
1:1:1:0:0:1:0:0:0:1:0:1:0
1:1:1:0:0:1:1:1:0:0:0:0:0
1:1:0:1:1:1:0:0:1:1:0:0:0
1:1:1:1:0:1:1:0:0:0:1:0:1
1:1:1:1:0:1:0:1:0:1:1:1:0
1:1:0:0:1:0:1:0:0:0:0:1:0
1:1:1:0:1:1:0:0:0:0:1:0:0
0:1:1:0:0:0:0:0:0:0:0:0:0
1:1:0:0:0:1:0:1:0:0:1:1:0
1:1:0:0:0:1:0:0:1:0:1:0:0
1:1:0:0:1:1:1:1:0:0:1:0:0
1:1:0:1:1:1:0:0:0:0:0:1:1
0:1:1:0:0:1:1:0:1:1:0:0:0
1:1:0:0:0:1:0:0:0:1:1:1:0
1:1:1:0:0:1:0:0:0:0:0:1:1
1:1:1:0:1:1:1:1:0:0:0:0:0
1:1:0:1:0:1:1:1:0:1:0:0:0
1:1:1:0:0:0:1:0:0:1:0:1:0
1:1:0:1:1:1:1:0:0:0:1:1:0
1:1:0:0:0:0:0:0:0:1:1:0:0
1:1:0:1:0:0:0:0:0:0:0:1:1
1:1:0:0:1:1:1:0:0:1:0:1:0
1:1:1:1:0:1:0:1:0:0:1:0:0
0:1:0:0:0:0:1:1:0:1:0:1:0
1:1:0:1:0:1:0:0:1:0:0:0:0
1:1:1:1:0:1:0:0:0:0:1:1:1
0:1:0:1:0:1:1:1:0:0:0:0:0
1:1:0:1:1:1:1:0:1:1:0:1:1
1:1:0:1:0:0:0:0:0:0:0:0:0
1:1:0:0:0:1:0:0:0:0:1:0:0
1:1:1:1:0:1:0:0:0:0:0:1:1
1:1:1:1:0:0:1:0:0:0:1:0:0
1:1:1:0:0:0:1:1:1:1:0:0:0
0:1:0:1:0:1:0:1:0:0:1:0:0
1:1:0:0:1:1:0:1:0:0:1:1:0
1:1:1:0:0:1:0:1:1:1:0:1:1
1:1:1:1:0:1:1:0:1:1:0:1:0
1:1:1:0:0:1:0:0:1:1:1:0:0
1:1:0:0:0:1:0:0:1:0:0:0:0
1:1:1:0:0:0:1:0:1:1:0:0:1
1:1:0:0:0:0:1:0:0:1:0:0:1
1:1:1:0:1:1:0:0:0:0:0:1:0
1:1:1:0:0:0:0:0:0:1:0:0:0
1:1:0:0:0:0:0:0:1:1:1:0:0
1:1:1:0:1:1:0:0:1:0:0:1:1
1:1:1:1:1:0:0:0:0:0:0:1:1
1:1:1:1:1:1:0:0:0:0:1:0:0
1:1:1:1:0:1:0:1:0:0:0:0:1
1:1:1:1:1:1:1:0:0:1:0:1:1
1:1:1:1:1:1:0:1:0:0:1:1:0
1:1:0:1:0:1:1:0:0:1:0:0:0
1:1:0:1:0:1:1:0:1:1:1:1:1
1:1:1:1:1:1:0:0:0:0:0:0:0
0:1:0:0:0:1:0:0:0:1:0:0:1
1:1:1:1:0:0:1:0:1:0:1:0:0
1:1:1:1:1:1:1:0:0:0:0:1:0
1:1:0:0:0:0:0:0:0:1:1:1:1
1:1:0:0:1:1:0:0:0:1:0:1:0
1:1:1:1:1:1:0:0:1:0:0:1:0
0:1:0:1:0:1:0:0:0:1:0:1:0
1:1:0:0:0:1:1:1:1:1:1:1:0
1:1:0:0:1:1:1:0:0:0:0:1:0
1:1:1:1:1:1:1:0:0:1:1:0:0
1:0:0:0:0:1:0:1:0:0:0:1:0
1:1:1:0:0:0:0:0:1:1:0:0:0
1:1:0:0:1:1:1:0:1:1:0:0:1
1:1:1:0:0:1:1:0:0:0:1:0:1
1:1:1:0:1:1:1:0:0:1:1:0:0
1:1:0:0:0:1:0:0:0:1:0:0:1
1:1:0:1:0:1:1:0:1:0:0:1:0
1:1:1:0:1:1:0:1:0:0:0:1:0
1:1:0:1:0:0:0:0:0:1:0:0:0
1:1:1:1:1:1:1:0:1:0:0:0:0
1:1:0:1:0:1:1:1:1:1:1:1:0
1:1:1:1:1:1:0:1:0:1:1:1:0
1:1:1:0:0:0:1:1:0:1:0:0:0
1:1:0:0:1:0:1:0:0:1:0:1:0
1:1:0:0:1:0:0:0:0:1:0:0:0
1:1:0:0:0:1:1:1:0:1:0:1:0
1:1:0:1:0:1:0:1:0:1:0:1:1
1:1:0:0:1:0:1:0:0:0:0:0:0
1:1:1:1:1:1:1:1:0:0:0:1:1
1:1:1:0:0:0:0:1:0:1:0:0:0
0:1:0:0:0:1:1:0:0:0:0:1:0
1:1:0:1:0:1:0:0:0:1:1:0:0
1:1:1:0:0:1:1:1:0:1:0:1:1
1:0:0:0:0:1:0:0:0:0:0:0:1
0:1:0:0:0:1:1:0:0:1:0:0:0
1:1:0:1:0:1:1:0:1:1:1:0:0
1:1:0:1:0:1:1:1:0:0:0:1:0
1:1:1:1:1:1:0:0:0:1:0:0:1
1:1:1:0:0:1:0:1:0:0:1:0:1
1:1:1:0:1:0:1:0:1:1:0:0:1
1:1:1:0:0:0:0:0:0:0:0:1:0
1:1:0:0:1:1:1:1:1:0:0:1:0
1:1:0:0:0:0:1:0:1:0:1:0:0
1:1:0:0:0:0:1:1:1:0:0:0:0
0:1:0:0:0:1:0:0:0:1:0:0:0
1:1:1:1:0:1:0:0:1:0:0:0:0
1:1:0:0:0:1:1:1:0:1:0:0:0
1:1:0:0:0:1:0:0:0:0:1:1:1
1:1:0:1:1:0:1:0:0:1:0:1:0
1:1:0:1:1:1:1:0:0:1:0:0:0
1:1:1:0:1:1:0:0:0:0:1:1:0
1:1:0:0:0:1:0:0:1:1:0:1:1
1:1:0:1:0:1:0:1:0:1:0:1:0
1:1:1:0:0:1:0:0:1:0:0:1:0
1:1:1:0:1:1:0:1:0:0:0:0:0
1:1:0:0:0:1:0:1:0:1:0:0:0
1:1:0:1:0:1:1:0:0:0:0:1:0
1:1:0:0:0:1:1:1:1:0:0:0:1
1:1:1:0:1:0:0:0:0:0:0:1:0
1:1:0:0:0:1:0:1:1:0:0:1:0
1:1:1:0:1:1:0:1:1:0:1:1:0
1:1:1:1:0:1:0:1:1:1:1:1:1
1:1:1:0:0:1:1:0:0:0:0:1:1
1:1:1:1:0:1:0:0:1:0:1:0:0
1:1:0:1:0:1:1:1:1:1:0:0:1
1:1:1:0:1:1:0:0:0:1:0:1:1
1:1:1:1:1:1:1:0:0:1:1:1:1
1:1:1:0:1:0:0:0:0:1:0:0:1
1:1:0:1:1:1:1:0:1:1:0:0:1
1:1:1:0:1:0:1:0:1:0:1:0:0
1:1:1:1:0:1:1:0:0:0:1:1:0
1:1:1:0:0:0:1:0:0:1:1:0:0
1:1:0:0:0:0:0:1:0:1:0:0:1
1:1:0:0:0:0:1:1:0:0:0:1:0
1:1:0:0:1:1:1:0:0:1:1:0:0
1:1:1:0:1:0:1:0:0:0:1:1:0
1:1:0:1:0:1:1:1:0:1:0:1:0
1:1:0:0:0:1:1:1:1:0:0:0:0
1:1:0:1:0:1:0:0:0:1:0:0:1
1:1:0:1:1:1:0:0:1:1:0:1:0
1:1:1:1:1:1:0:0:0:1:1:0:0
0:1:0:0:0:1:1:0:0:0:0:0:1
1:1:1:0:0:1:0:1:0:1:1:0:1
1:1:0:1:0:0:0:1:0:0:1:0:0
1:1:1:1:1:1:1:0:1:1:1:0:1
1:1:0:1:0:1:0:1:0:0:1:0:0
1:1:0:1:1:1:1:1:0:1:1:0:1
1:1:0:0:0:1:1:0:1:1:0:0:0
1:1:0:0:1:1:1:0:0:0:1:1:1
1:1:0:1:1:1:0:1:0:0:0:0:1
1:1:1:1:1:1:1:1:1:1:0:0:0
1:1:1:0:0:1:1:0:1:0:1:1:0
1:1:0:0:0:1:0:0:1:0:0:0:1
1:1:1:0:1:1:1:0:0:0:1:0:0
1:1:1:0:0:1:0:0:1:0:1:0:0
1:1:1:0:0:0:1:1:1:0:0:0:0
1:1:1:1:0:0:0:0:0:0:1:1:0
1:1:1:0:0:0:0:1:0:0:1:0:1
1:0:0:1:0:1:0:1:0:0:0:1:0
1:1:0:1:1:1:1:1:0:0:1:0:0
1:1:1:0:0:0:0:0:0:1:0:1:1
1:1:1:0:0:1:0:1:0:0:1:1:0
1:1:1:0:0:1:1:0:0:1:1:0:1
1:1:1:0:0:1:1:1:0:0:1:1:0
1:1:1:1:1:1:0:0:0:1:1:0:1
1:1:1:0:0:1:0:1:0:1:1:1:1
1:1:1:0:1:1:0:0:0:0:1:1:1
1:1:1:0:0:1:1:0:1:0:0:1:0
0:0:0:0:0:1:0:1:0:0:0:1:0
1:1:0:1:0:1:0:1:0:0:0:1:0
1:1:0:1:0:0:0:1:0:0:1:1:0
1:1:0:1:0:1:0:0:0:1:1:1:0
0:1:0:0:0:1:1:1:0:0:0:1:0
1:1:1:0:0:1:0:0:0:0:1:0:1
1:1:0:0:1:0:0:0:0:0:0:0:0
1:1:1:0:1:1:1:0:0:1:0:1:0
0:1:1:0:0:0:0:0:0:0:0:1:0
1:1:0:1:1:1:1:1:0:0:1:0:1
1:1:1:1:0:1:0:0:0:1:1:0:1
0:1:0:0:0:1:0:0:0:0:0:1:1
1:1:1:1:0:1:0:1:1:1:1:0:0
1:1:0:1:0:0:1:1:1:0:0:0:0
1:1:1:0:1:1:1:0:1:1:1:0:1
1:1:0:0:1:1:1:1:0:0:0:0:0
1:1:1:0:0:1:1:1:1:0:0:0:1
1:1:0:1:0:1:0:0:1:0:1:0:0
1:1:0:0:1:1:0:0:0:1:0:0:1
1:1:1:1:0:0:0:0:0:1:0:0:1
1:1:1:0:0:1:0:1:0:1:0:1:0
1:0:0:0:0:0:0:1:0:0:0:1:0
0:1:0:0:0:1:1:0:0:0:0:0:0
1:1:1:0:0:0:0:1:0:0:0:1:1
1:1:1:1:1:1:1:1:0:0:0:0:0
1:1:0:1:1:1:0:1:0:1:1:0:0
1:1:0:0:0:1:0:0:0:0:1:0:1
1:1:0:0:0:1:0:0:0:0:0:1:1
1:1:0:0:1:1:0:1:0:1:0:0:0
1:1:0:1:0:1:1:0:0:1:0:1:0
1:1:1:1:1:1:0:1:1:1:1:1:1
1:1:0:0:0:1:1:1:0:1:1:0:1
0:1:0:0:0:1:0:0:0:1:1:0:1
0:1:0:0:0:0:0:1:0:0:0:0:0
1:1:0:1:1:1:1:1:0:1:1:1:0
1:1:0:1:1:1:1:0:0:1:1:0:0
1:1:1:0:0:1:0:0:0:1:0:0:0
1:1:1:0:1:1:1:0:0:1:1:1:0
1:1:1:1:0:1:0:1:1:1:0:0:0
1:1:1:0:0:0:0:1:0:1:0:1:1
1:1:0:0:1:0:0:1:0:0:0:0:0
1:1:1:0:0:0:0:1:0:0:0:0:0
1:1:0:0:1:1:1:1:1:1:0:1:0
1:1:1:1:0:1:0:0:1:0:0:1:0
1:1:1:1:1:1:0:0:0:1:1:1:1
1:1:1:0:0:1:0:0:1:0:1:1:0
1:1:0:0:0:1:0:1:1:1:0:1:1
1:1:1:0:1:1:0:0:0:1:1:0:0
1:1:1:1:0:1:1:0:0:1:1:0:0
1:1:0:0:0:0:0:0:0:1:0:1:1
0:1:1:0:0:1:0:0:0:0:0:0:1
1:1:1:0:0:1:0:0:0:1:0:1:1
1:1:0:0:1:1:0:0:1:0:1:0:1
1:1:1:0:0:1:0:0:1:1:1:0:1
1:1:1:0:0:1:0:1:0:0:0:0:0
1:1:1:0:1:1:0:0:0:0:0:1:1
1:1:0:1:1:1:1:1:1:0:0:1:0
1:1:0:1:0:1:1:1:1:1:1:0:0
0:1:1:0:0:0:1:0:0:0:0:0:0
1:1:0:0:0:1:1:0:0:1:0:0:1
1:1:0:1:0:1:0:0:0:1:0:1:0
0:1:0:1:0:1:0:0:0:0:0:1:1
1:1:1:1:0:0:0:0:0:0:0:1:1
1:1:1:0:0:1:1:0:1:0:0:0:0
1:1:0:1:0:0:0:0:0:1:0:0:1
1:1:1:0:1:1:1:0:0:0:0:1:0
1:1:0:1:0:1:1:1:0:1:1:1:1
1:1:1:0:0:1:1:0:0:0:1:1:1
1:1:1:1:0:1:0:0:0:1:0:0:1
1:1:1:0:1:1:0:0:0:1:1:1:0
1:1:1:0:1:1:0:1:0:1:0:0:1
1:1:0:0:0:0:0:0:0:0:1:0:0
1:1:1:0:0:0:0:0:1:1:1:0:0
1:1:1:1:1:1:1:0:1:1:0:0:1
1:1:1:1:0:1:0:1:1:0:1:0:0
1:1:1:0:0:1:1:1:0:1:1:1:1
1:1:0:0:0:0:0:1:0:0:0:0:0
1:1:0:0:0:1:1:0:0:1:1:1:1
1:1:1:0:0:0:0:0:0:1:0:0:1
1:1:0:1:0:1:1:0:0:0:1:1:1
1:1:0:1:0:0:0:0:0:0:0:1:0
1:1:1:1:0:1:0:1:0:1:0:1:1
1:1:0:0:0:0:1:0:1:1:0:1:0
1:1:0:0:0:1:1:0:0:0:1:0:0
1:1:0:0:0:0:1:0:0:0:0:1:1
1:1:0:1:1:1:1:0:1:1:1:1:1
1:1:0:0:1:1:1:0:1:0:1:1:1
1:1:1:1:0:1:0:1:1:0:1:0:1
1:0:0:1:0:1:0:0:0:0:0:1:1
1:1:1:0:0:0:0:0:1:0:0:0:0
1:1:1:0:0:0:1:0:1:0:0:0:1
1:1:1:1:0:1:0:0:1:1:1:0:1
1:1:1:0:1:1:1:0:1:1:0:0:1
1:1:1:1:1:1:1:0:0:1:0:0:1
1:1:1:1:0:1:0:1:1:0:0:1:0
1:1:0:1:1:1:0:0:0:1:0:1:0
1:1:0:0:0:0:0:0:0:0:0:1:0
1:1:1:0:0:1:1:1:1:1:0:0:0
1:1:0:0:0:1:0:0:0:1:0:1:0
1:1:0:1:0:1:1:1:0:0:0:0:1
1:1:1:1:0:1:0:1:0:0:0:1:0
1:1:1:1:1:1:0:0:0:1:0:1:1
1:1:1:0:0:1:1:0:0:1:1:1:0
1:1:1:1:0:1:1:0:0:1:1:1:1
1:1:0:0:0:0:1:1:0:0:0:0:1
1:1:0:0:0:0:0:0:1:1:1:1:0
1:1:1:1:0:1:1:1:0:0:0:1:0
1:1:1:1:1:1:1:1:1:1:1:1:1
1:1:1:0:1:1:1:0:0:1:0:1:1
0:1:1:1:1:1:1:0:1:1:1:1:1
1:1:1:1:1:1:0:1:0:0:0:0:0
1:1:0:1:0:1:0:0:0:0:1:0:0
1:1:0:0:0:1:1:0:0:1:1:1:0
1:1:1:0:0:1:0:1:0:1:0:0:1
1:1:0:1:1:1:0:0:0:1:1:1:0
1:1:0:0:1:1:0:0:0:0:1:1:1
1:1:1:0:0:0:0:1:0:0:0:1:0
0:1:0:0:1:1:0:0:0:0:0:0:1
1:1:0:0:0:1:1:1:0:1:0:0:1
1:1:1:0:1:1:1:1:0:1:0:0:0
1:1:1:1:0:1:1:1:0:1:1:0:1
1:1:0:0:1:1:0:1:0:0:1:1:1
1:1:0:1:0:1:1:0:0:1:1:1:0
1:1:1:0:1:1:1:1:0:1:1:1:0
1:1:0:0:0:0:1:1:0:0:0:1:1
1:1:0:1:0:0:0:1:0:0:0:1:0
1:1:1:1:0:1:1:0:0:1:1:0:1
1:1:1:1:1:1:0:0:0:0:0:1:0
1:1:1:0:0:1:1:0:1:0:1:0:0
1:1:0:1:1:1:0:1:0:0:0:1:0
1:1:0:0:0:1:0:1:0:1:1:1:0
1:1:1:0:1:1:0:1:1:0:1:1:1
1:1:0:1:0:1:1:0:0:1:1:0:0
1:1:0:0:1:1:0:0:0:0:0:0:0
1:1:0:0:1:1:1:0:0:1:1:1:1
1:1:0:1:0:1:0:1:0:0:0:0:1
1:1:0:0:0:1:0:1:0:0:1:0:1
1:1:1:0:1:1:0:1:1:0:0:1:0
1:1:0:1:0:1:0:1:0:0:1:1:0
1:1:1:0:1:1:1:1:0:0:0:0:1
1:1:1:1:0:1:1:1:0:0:1:1:0
0:1:0:1:0:1:0:1:0:0:0:1:0
1:1:0:1:1:1:1:0:1:1:0:1:0
1:1:1:0:0:1:1:1:0:0:0:0:1
1:1:1:0:1:0:0:0:0:0:1:1:0
1:1:0:1:1:1:1:1:0:1:0:1:1
1:1:0:1:0:0:1:0:0:1:1:1:0
1:1:1:1:1:1:0:0:1:1:0:1:1
0:1:1:0:0:1:0:0:0:1:0:0:0
1:1:0:0:1:1:0:0:0:1:1:1:0
1:1:1:0:1:1:1:0:0:0:0:1:1
1:1:0:0:0:1:0:0:1:0:0:1:1
1:1:0:1:0:1:0:0:0:1:1:0:1
1:1:0:0:0:1:0:0:1:1:1:0:1
1:1:0:0:0:1:0:1:0:0:0:0:1
1:1:0:1:1:1:0:0:0:0:0:0:0
1:1:0:1:0:1:1:0:1:1:0:1:0
1:1:0:0:1:1:0:0:0:0:1:0:0
1:1:0:1:0:1:0:1:0:1:0:0:1
1:1:1:0:0:0:0:1:1:1:0:0:0
1:1:1:1:0:0:0:0:0:1:1:0:0
1:1:0:1:1:0:1:0:0:0:0:0:0
1:1:0:0:1:1:1:0:1:1:1:1:0
1:1:0:1:0:1:1:0:1:0:1:0:0
1:1:0:0:0:1:1:0:0:1:0:1:0
1:1:0:0:1:1:0:0:0:0:1:1:0
0:1:1:0:0:1:1:0:0:1:0:0:0
1:1:1:0:0:1:0:1:1:1:0:0:1
1:1:0:0:0:1:1:0:1:0:1:0:0
1:1:0:0:0:1:1:0:0:1:0:1:1
1:1:0:0:0:0:0:0:0:1:0:1:0
1:1:0:0:0:1:1:0:0:0:1:0:1
1:1:1:1:1:1:1:0:0:1:0:1:0
1:1:0:0:1:1:1:0:0:1:0:0:0
0:0:0:0:0:0:0:0:0:0:0:0:0
1:1:0:0:0:1:0:1:1:0:1:1:0
1:1:1:0:1:1:1:0:1:0:0:1:0
0:1:0:0:0:1:0:0:0:0:1:0:0
1:1:1:1:0:1:1:0:0:1:0:0:1
1:0:0:1:0:1:0:1:0:0:0:0:0
1:1:0:0:0:1:0:0:1:1:0:0:1
1:1:0:0:0:1:1:1:0:1:1:1:0
1:1:1:0:0:1:1:1:0:1:1:1:0
1:1:0:0:0:1:0:1:0:1:1:1:1
1:1:0:0:0:1:1:0:1:0:0:0:1
0:1:0:0:0:1:0:1:0:0:0:0:1
1:1:1:1:0:0:1:0:1:0:0:0:1
1:1:1:1:1:1:0:0:1:1:0:0:0
1:1:0:1:1:1:1:1:0:1:0:0:1
1:1:1:0:0:1:0:0:0:0:1:1:1
0:1:1:0:0:1:1:0:1:0:0:0:0
1:1:1:1:0:1:0:0:0:1:1:0:0
0:1:0:1:0:1:0:0:0:0:0:0:1
1:1:1:0:1:1:1:1:0:0:1:1:0
1:1:0:0:0:0:0:0:0:0:1:1:1
1:1:0:1:1:1:0:1:0:1:0:0:0
1:1:0:1:0:1:0:0:1:1:0:1:0
1:1:1:0:0:1:0:0:1:0:1:0:1
1:1:1:1:1:1:0:1:1:1:0:1:0
1:1:1:0:0:1:0:1:0:0:0:0:1
1:1:0:0:0:1:1:1:0:0:0:0:1
1:1:0:0:1:1:0:1:0:1:1:1:0
1:1:1:0:1:1:1:0:1:1:0:0:0
1:1:0:0:1:1:0:0:0:0:1:0:1
1:1:1:1:1:1:0:1:0:1:0:0:0
1:1:0:1:0:0:0:0:0:0:1:0:0
1:1:0:0:1:1:1:1:0:0:0:1:0
1:1:1:0:1:0:1:0:1:1:1:0:0
1:1:0:0:0:1:0:0:0:0:0:0:1
1:1:1:1:0:1:1:0:0:1:0:0:0
1:1:0:0:0:0:0:1:0:0:0:1:0
1:1:0:1:1:1:0:0:0:1:1:0:1
1:1:0:1:1:1:0:0:1:0:1:0:0
1:1:0:0:1:1:0:0:0:1:1:0:1
1:1:1:1:0:1:1:1:1:1:0:1:1
1:1:0:0:0:0:0:0:1:1:0:0:0
1:1:0:0:1:1:0:0:0:1:0:1:1
1:1:0:0:0:0:0:0:0:0:1:1:0
1:1:0:1:0:1:0:0:0:0:0:1:0
1:1:1:1:0:0:0:0:0:1:0:0:0
0:1:1:1:0:1:0:0:0:0:0:0:0
1:1:1:1:1:1:0:1:0:0:0:1:1
1:1:1:1:0:1:1:1:0:1:0:0:1
1:1:0:0:0:1:0:1:1:0:0:1:1
1:1:0:1:1:1:0:1:0:1:0:1:0
1:1:0:1:1:1:1:0:0:0:1:0:1
1:1:1:1:0:1:0:0:1:1:1:0:0
1:1:1:1:0:0:0:0:0:0:0:1:0
1:1:0:1:0:1:0:0:0:0:0:0:0
1:1:0:0:0:1:1:0:0:0:1:1:0
1:1:0:1:0:1:0:1:1:0:0:1:0
1:1:0:0:1:1:1:1:0:1:1:1:0
1:1:0:0:1:1:1:1:0:0:1:1:0
1:1:1:1:0:1:1:1:0:0:1:1:1
1:1:0:0:0:0:0:0:0:0:0:0:1
1:1:1:1:0:1:0:1:0:1:0:1:0
1:1:1:1:0:1:0:0:0:0:1:0:1
1:1:1:0:0:1:1:0:1:1:1:0:0
1:1:1:0:0:1:1:1:0:1:1:0:1
1:1:0:1:1:1:1:1:0:1:1:0:0
0:1:0:0:0:0:0:1:0:0:0:1:0
1:1:1:1:0:1:1:0:1:1:1:0:0
1:1:1:0:1:1:0:1:0:0:0:1:1
1:1:0:1:0:0:1:0:0:0:0:0:0
1:1:0:0:0:1:0:0:0:1:0:1:1
1:1:0:0:0:1:1:1:0:0:1:1:1
1:1:0:0:1:1:0:0:1:1:1:0:0
1:1:0:0:0:1:0:1:1:0:0:0:1
1:1:1:0:0:1:0:0:0:0:0:0:0
1:1:1:0:0:1:1:1:1:1:0:1:1
1:1:1:1:0:1:0:0:0:1:0:1:1
1:1:0:1:0:1:0:0:1:0:0:1:1
1:1:0:0:0:1:0:0:1:1:1:0:0
1:1:1:1:0:1:1:1:1:1:1:1:1
1:1:0:0:0:0:0:1:0:0:0:0:1
0:1:0:0:0:1:0:0:0:0:0:0:0
1:1:1:0:1:1:1:0:0:1:0:0:1
1:1:0:1:0:1:0:1:1:0:0:0:0
1:1:0:0:0:0:1:0:0:1:0:0:0
1:1:0:1:0:1:1:0:0:0:0:0:1
1:1:0:1:1:1:1:0:0:0:0:1:0
0:1:0:0:0:0:0:1:0:0:0:0:1
1:1:0:0:0:0:1:0:0:1:1:0:1
1:1:1:0:1:1:0:0:1:1:0:0:1
1:1:0:1:0:1:1:1:1:1:0:0:0
1:1:0:1:0:1:1:0:1:1:1:0:1
1:1:1:1:0:1:1:0:1:1:0:0:0
1:1:1:0:0:1:0:1:0:0:1:1:1
1:1:0:0:0:1:1:0:0:1:1:0:0
1:1:0:1:0:1:1:0:1:1:0:1:1
1:1:1:0:1:1:0:0:0:1:0:1:0
1:1:1:0:0:1:1:0:0:1:0:1:0
1:1:0:0:0:1:0:0:1:0:0:1:0
1:1:1:0:1:0:0:0:0:0:1:0:0
1:1:0:0:0:1:1:1:0:0:1:0:0
1:1:1:1:1:1:1:0:1:1:0:1:0
1:1:1:1:0:1:0:0:1:1:1:1:0
1:1:0:0:0:0:0:1:0:0:1:1:0
0:1:0:0:0:1:0:1:0:0:0:0:0
1:1:0:0:1:0:0:0:0:0:1:0:0
1:1:0:0:1:1:0:1:0:1:0:1:0
1:1:0:0:0:1:0:0:0:1:1:0:0
1:1:1:0:0:1:1:0:1:1:0:1:1
1:1:1:0:0:1:0:0:1:0:1:1:1
1:1:1:0:0:1:1:1:0:0:1:0:1
1:1:1:1:0:1:0:1:0:0:1:1:0
1:1:1:0:1:1:0:0:0:1:0:0:0
1:1:0:0:0:0:1:1:0:1:0:0:0
1:0:0:0:0:1:0:0:0:0:0:0:0
1:1:1:1:0:1:0:0:0:1:0:0:0
1:1:1:0:0:0:1:0:0:1:0:0:1
1:1:1:0:1:1:0:0:0:1:1:1:1
1:1:0:0:1:1:1:0:1:1:0:0:0
1:1:0:0:1:1:0:1:0:0:0:1:0
1:1:1:0:0:1:0:1:1:0:1:0:0
1:1:1:0:1:0:0:0:0:0:0:0:0
0:1:0:1:0:1:0:0:0:0:0:1:0
1:1:0:0:1:1:0:0:1:1:0:1:1
1:1:0:1:0:1:1:1:0:1:0:1:1
1:1:0:0:0:0:1:0:0:1:1:1:0
1:1:0:0:0:0:1:1:1:1:0:0:0
1:1:1:0:1:1:1:0:1:0:0:0:0
1:1:0:0:0:1:1:0:1:1:1:1:0
1:1:1:0:0:1:1:1:0:1:0:1:0
1:1:1:1:0:1:1:1:0:0:0:0:0
1:1:0:0:1:1:1:0:0:1:1:1:0
1:1:0:0:0:0:0:1:0:0:0:1:1
1:1:1:0:0:1:0:0:1:1:0:0:1
1:1:1:0:1:1:0:0:0:0:0:0:0
1:1:1:1:1:1:1:0:0:1:1:1:0
1:1:1:0:1:1:0:1:0:0:1:1:1
1:1:0:1:0:0:0:0:0:1:1:1:1
1:1:1:0:0:1:1:0:1:0:1:0:1
1:1:1:1:1:1:1:1:0:0:1:1:0
1:1:1:0:0:0:1:0:0:1:0:0:0
1:1:0:0:0:0:0:0:1:0:1:0:0
1:1:1:0:1:1:1:1:0:1:0:0:1
1:1:1:0:1:0:0:0:0:0:0:0:1
1:1:1:1:0:0:0:1:0:0:1:0:0
1:1:1:0:0:1:0:0:1:1:1:1:0
1:1:0:1:0:1:1:1:0:1:1:0:0
1:1:0:0:0:1:1:1:0:0:1:0:1
1:1:0:1:1:1:0:0:0:0:0:1:0
1:1:1:1:0:1:0:0:0:1:1:1:1
1:1:1:1:1:1:0:0:0:1:0:0:0
1:1:1:0:0:1:1:1:0:1:1:0:0
1:1:1:1:1:1:1:0:1:1:0:0:0
1:1:0:0:1:1:0:1:0:1:0:1:1
1:1:0:1:1:1:1:1:0:0:0:0:0
0:1:0:0:0:0:0:0:0:0:1:0:0
1:1:0:0:1:1:0:1:0:0:1:0:0
1:1:1:1:0:1:0:0:0:0:1:1:0
1:1:0:0:0:0:0:0:0:1:1:1:0
0:1:0:0:0:1:0:0:0:0:0:0:1
1:1:0:0:0:1:0:1:0:0:0:0:0
1:1:0:0:1:1:0:1:0:0:0:1:1
1:1:0:0:0:1:0:1:1:1:0:1:0
1:1:0:0:0:0:1:0:0:1:1:0:0
1:1:0:0:0:1:1:0:0:1:1:0:1
1:1:0:0:0:1:1:0:0:0:0:1:1
1:1:0:0:0:0:0:1:0:1:0:1:0
1:1:1:1:0:0:0:0:1:0:1:0:0
1:1:0:0:1:1:1:0:1:1:0:1:0
1:1:0:1:0:1:1:1:0:1:1:0:1
1:1:0:0:0:1:0:0:1:0:1:1:1
1:1:1:0:0:0:0:0:0:1:1:1:1
1:1:0:1:0:1:0:1:0:1:1:0:0
1:1:1:0:0:0:1:1:0:0:0:0:0
1:1:0:1:0:1:0:0:0:0:1:0:1
1:1:1:1:1:1:0:0:0:0:1:0:1
1:1:0:0:0:0:0:0:0:0:0:0:0
1:1:1:0:0:1:0:1:1:1:0:1:0
1:1:1:1:0:1:1:1:0:1:1:1:1
1:1:1:0:0:1:1:0:1:1:0:1:0
1:1:0:1:1:1:0:1:0:0:1:1:0
1:1:1:1:0:1:1:0:1:0:1:0:0
1:1:0:0:1:1:1:1:0:1:0:1:0
0:1:0:0:1:1:0:0:0:0:0:1:0
1:1:1:1:0:1:0:0:1:1:0:0:0
1:1:0:1:0:1:1:1:0:0:1:0:0
0:1:0:0:0:1:0:1:0:0:0:1:0
1:1:1:1:0:0:0:1:0:0:0:0:0
1:1:0:0:0:1:1:0:0:0:0:1:0
1:1:1:1:0:1:0:0:0:1:0:1:0
1:1:1:0:1:1:0:0:0:1:0:0:1
1:1:1:1:1:1:0:1:0:0:0:0:1
1:1:1:1:0:1:1:1:1:0:0:0:0
1:1:1:1:1:1:1:0:0:1:0:0:0
1:1:0:0:0:1:1:0:1:0:0:0:0
1:1:1:0:0:1:0:0:0:1:1:1:0
1:1:1:0:1:1:0:1:1:0:0:0:1
1:1:1:1:0:0:1:0:1:0:0:0:0
1:1:1:0:1:1:1:1:1:0:0:1:0
1:1:1:0:0:1:0:1:1:0:0:1:0
1:1:1:1:0:1:1:0:0:0:1:1:1
1:1:0:0:1:1:1:0:0:0:1:0:0
1:1:1:1:1:1:0:0:0:0:1:1:1
1:1:1:1:1:1:1:0:0:0:1:1:1
1:1:1:1:0:1:1:1:0:0:0:0:1
0:1:1:1:0:1:0:0:0:1:0:0:1
1:1:1:0:1:1:1:1:0:0:1:1:1
0:1:1:1:0:1:0:1:0:0:0:0:0
1:1:0:0:0:1:0:0:0:1:1:1:1
1:1:1:1:0:1:0:0:1:0:0:1:1
1:1:1:1:0:1:0:0:0:0:0:0:1
1:1:0:1:0:1:1:0:0:1:0:1:1
1:1:1:0:1:1:0:0:1:0:0:0:0
1:1:0:1:0:1:0:1:0:1:1:1:0
0:1:0:0:0:0:1:0:0:1:0:0:0
1:1:0:1:0:0:1:0:0:0:0:1:0
1:1:1:0:0:1:1:0:1:1:1:1:0
1:1:0:0:0:0:1:1:0:0:0:0:0
1:1:0:0:1:1:0:0:1:1:0:0:0
1:1:0:0:0:1:1:1:0:1:1:0:0
1:1:0:1:1:1:0:0:0:0:1:0:0
1:1:0:1:0:1:0:0:1:1:0:0:0
1:1:1:1:0:1:0:1:1:1:0:1:0
1:1:1:0:0:0:1:0:1:1:1:0:0
1:1:1:1:0:1:1:0:0:1:1:1:0
1:1:0:1:1:1:0:1:0:0:0:0:0
1:1:1:0:0:0:1:0:0:1:1:0:1
1:1:1:1:0:1:1:1:0:1:1:0:0
1:1:1:0:0:0:0:1:0:0:0:0:1
1:1:0:0:1:0:0:1:0:0:0:1:0
1:1:0:0:1:1:0:0:0:0:0:1:1
1:1:1:0:0:1:0:1:1:0:0:1:1
1:1:1:0:1:1:0:1:1:0:0:0:0
1:1:1:0:0:1:1:0:0:0:0:1:0
1:1:0:0:1:1:0:0:1:0:0:1:0
1:1:1:1:0:1:1:0:1:1:0:0:1
1:1:0:0:0:0:1:0:1:0:0:0:1
1:1:1:0:1:1:1:1:0:1:0:1:0
1:1:0:1:1:1:1:0:0:0:1:1:1
1:1:1:0:0:0:0:0:0:1:1:0:0
1:1:1:1:0:0:0:0:0:0:0:0:0
1:1:1:1:0:0:1:0:1:1:0:0:0
1:1:1:1:0:1:0:1:0:1:0:0:1
1:1:0:0:0:1:1:0:0:0:0:0:0
0:1:0:0:0:1:0:0:0:0:0:1:0
1:1:1:0:0:1:1:0:0:0:1:0:0
1:1:0:0:1:1:0:1:0:0:0:0:1
1:1:0:1:0:0:1:0:1:1:0:0:0
1:1:1:0:1:1:1:1:0:0:0:1:0
0:1:0:1:0:1:0:0:0:0:0:0:0
1:1:1:0:0:1:0:0:0:1:1:0:1
1:1:0:1:1:1:0:1:0:0:0:1:1
1:1:0:1:0:1:1:0:0:0:0:1:1
1:1:0:0:0:0:1:0:0:0:1:0:0
1:1:0:1:0:1:0:0:0:1:0:1:1
1:1:1:1:0:1:1:0:0:0:0:0:0
1:1:1:0:0:1:0:0:1:0:0:0:0
1:1:1:0:1:1:1:0:0:1:0:0:0
1:1:1:1:0:1:1:1:1:1:0:0:0
1:1:1:0:0:1:1:0:0:0:0:0:1
1:1:1:1:0:1:1:0:1:1:1:1:0
1:1:1:0:0:1:1:1:1:1:1:0:0
1:1:1:1:1:1:0:0:0:0:1:1:0
1:1:1:1:1:1:1:0:1:1:1:1:1
0:1:0:0:0:0:0:0:0:0:0:1:0
1:1:0:0:0:1:1:0:1:0:0:1:1
1:1:0:0:0:1:1:0:1:1:0:0:1
1:1:0:1:0:0:1:0:0:1:0:1:0
1:1:1:1:0:0:0:0:0:0:0:0:1
1:1:0:1:0:1:1:0:0:0:1:1:0
1:1:1:1:0:1:0:1:0:1:0:0:0
0:1:0:0:1:1:1:0:0:1:0:0:0
1:1:0:1:0:1:0:0:1:0:0:0:1
1:1:0:1:1:1:1:1:0:1:0:0:0
1:1:0:0:0:0:0:0:1:0:0:1:0
1:1:1:1:0:1:0:1:0:0:0:1:1
1:1:1:0:0:0:1:0:0:0:0:0:1
0:1:0:0:0:1:0:0:0:1:1:0:0
1:1:1:0:1:0:1:0:0:1:0:1:0
1:1:0:0:1:1:1:1:0:1:1:0:0
1:1:1:1:0:1:1:1:1:1:0:1:0
1:1:0:1:0:1:0:0:1:1:0:0:1
1:1:0:1:0:1:0:0:1:1:0:1:1
1:1:0:1:0:1:1:0:0:1:1:1:1
1:1:0:1:0:0:0:0:0:1:1:0:0
1:1:0:0:1:1:0:0:1:0:1:1:1
1:1:1:1:1:1:1:0:0:0:0:0:0
1:1:0:1:1:1:1:0:0:0:0:0:0
1:1:0:0:1:1:0:0:0:1:0:0:0
1:1:0:1:0:0:0:0:0:1:0:1:0
1:1:1:0:1:1:0:0:1:0:1:0:1
1:1:1:1:0:1:1:0:1:0:1:1:0
1:1:0:0:0:0:0:1:1:0:0:1:0
1:1:0:1:1:1:1:1:0:0:0:1:0
1:1:0:0:0:1:1:0:0:0:0:0:1
1:1:0:0:0:0:0:1:0:0:1:0:0
1:1:0:0:0:1:0:0:0:1:0:0:0
1:1:0:1:0:0:1:0:0:0:1:0:0
1:1:0:1:1:1:0:1:0:0:1:0:1
1:1:0:1:0:0:1:0:0:1:0:0:0
0:1:0:0:0:0:0:0:0:0:0:0:1
0:1:0:1:0:0:0:0:0:0:0:0:1
1:1:1:0:0:0:0:0:0:0:1:0:1
1:1:1:0:0:1:0:1:1:1:1:0:0
1:1:0:1:0:1:1:1:0:1:0:0:1
1:1:1:0:0:1:0:0:1:1:0:1:1
1:1:1:1:0:1:1:1:0:1:1:1:0
1:1:1:0:0:1:0:1:0:1:0:0:0
1:1:0:1:0:1:0:0:0:0:1:1:0
1:1:1:1:1:1:0:0:0:0:0:1:1
1:1:1:1:0:1:0:0:1:1:0:1:0
1:1:1:1:1:1:0:1:0:1:0:1:0
1:1:0:1:0:1:0:1:1:1:1:0:0
1:1:0:1:1:1:1:1:0:1:0:1:0
1:1:0:0:1:1:1:0:0:0:0:1:1
1:1:1:0:1:0:1:1:0:0:0:1:0
1:1:0:0:1:1:0:0:1:0:0:1:1
1:1:0:1:1:1:0:0:0:1:0:0:0
1:1:0:1:0:0:0:0:0:0:0:0:1
1:1:1:1:0:1:0:1:0:0:1:0:1
0:1:0:0:0:1:0:1:0:0:1:1:0
1:1:1:1:1:1:1:1:0:0:0:1:0
1:1:0:0:0:1:0:1:0:0:0:1:1
1:1:0:0:0:1:0:1:0:1:1:0:0
1:1:1:0:1:1:1:0:0:1:1:0:1
1:1:1:0:0:1:1:0:0:0:0:0:0
0:1:0:0:0:1:1:0:0:1:0:0:1
1:1:1:0:0:1:1:0:0:1:1:1:1
1:1:0:1:1:1:1:0:0:0:1:0:0
1:1:1:1:0:0:0:0:1:1:0:0:0
1:1:0:1:1:1:0:1:0:1:0:0:1
1:1:0:0:0:1:1:0:0:0:1:1:1
1:1:0:1:0:1:1:0:1:1:0:0:0
1:1:1:1:0:0:1:0:0:1:0:0:1
1:1:1:0:1:1:0:0:1:0:0:1:0
1:1:1:1:0:1:1:1:0:1:0:1:1
1:1:1:1:0:1:0:0:1:1:0:0:1
1:1:1:1:1:1:0:0:0:1:1:1:0
1:1:1:0:0:1:1:0:1:0:0:0:1
1:1:1:0:1:1:1:1:0:0:0:1:1
1:1:1:0:1:1:0:1:0:1:1:0:0
1:1:0:0:0:1:0:0:1:1:0:0:0
1:1:0:0:0:1:1:1:1:1:0:0:1
1:1:1:0:0:1:0:0:0:0:0:0:1
1:1:1:0:0:0:0:0:0:0:0:0:0
1:1:1:0:0:1:1:0:1:1:1:0:1
1:1:1:1:1:1:1:0:1:1:0:1:1
1:1:1:1:0:1:1:0:0:0:1:0:0
1:1:0:0:1:1:0:0:0:1:1:1:1
1:1:1:0:0:1:1:1:1:0:0:0:0
1:1:1:0:0:1:1:1:0:1:0:0:0
1:1:1:1:1:1:0:1:0:0:1:0:0
1:1:1:0:0:1:1:1:0:0:0:1:0
1:1:0:0:0:1:0:1:1:0:1:0:0
1:1:1:0:0:0:1:0:1:1:0:0:0
1:1:1:0:1:0:1:0:1:1:0:0:0
1:1:1:0:0:1:0:0:1:0:0:1:1
1:1:1:1:1:1:1:0:0:0:0:1:1
1:1:0:1:0:1:0:1:0:0:1:0:1
1:1:1:1:1:1:0:1:0:1:1:0:0
1:1:1:1:0:1:0:0:0:0:0:0:0
1:1:0:0:0:0:1:1:0:0:1:0:0
1:1:0:0:0:1:0:1:0:1:0:0:1
1:1:0:1:0:1:1:1:0:0:1:0:1
1:1:1:0:0:1:0:1:0:0:0:1:0
1:1:0:0:1:1:1:1:0:1:0:1:1
1:1:1:0:0:1:1:0:0:1:1:0:0
1:1:1:0:0:1:1:0:1:1:0:0:0
1:1:0:1:1:1:0:1:0:1:1:1:0
1:1:1:0:1:1:0:1:0:0:1:1:0
1:1:0:0:1:0:1:0:0:1:0:0:0
1:1:1:1:0:0:1:0:0:1:0:0:0
1:1:1:0:1:1:1:0:0:0:0:0:0
1:1:1:0:0:0:0:0:0:0:0:1:1
1:1:1:1:0:1:0:1:0:0:1:1:1
1:1:1:0:1:1:1:0:0:0:1:0:1
1:1:1:0:0:1:1:1:0:1:0:0:1
0:1:0:0:0:0:0:0:0:1:0:0:0
1:1:1:0:0:1:0:1:0:1:0:1:1
1:1:0:0:1:0:1:0:0:1:1:0:1
1:1:0:0:1:1:0:0:1:0:0:0:1
1:1:0:1:1:1:1:0:0:0:0:1:1
1:1:0:0:1:1:1:0:0:0:1:1:0
1:1:1:0:0:1:1:1:0:0:1:1:1
1:1:0:0:0:0:1:1:0:1:0:1:0
1:1:1:0:0:1:0:0:0:1:1:1:1
1:1:0:1:1:0:0:0:0:0:1:0:0
1:1:0:0:0:1:1:0:1:0:1:0:1
1:1:0:0:0:0:0:0:0:1:0:0:1
1:1:0:1:1:1:0:0:0:0:1:1:0
1:1:0:1:1:1:0:0:0:0:0:0:1
1:1:0:0:0:1:0:1:0:1:1:0:1
1:1:1:0:1:1:0:0:1:0:0:0:1
1:1:1:1:0:1:1:0:0:1:0:1:0
1:1:0:0:0:1:1:1:1:1:0:0:0
1:1:0:0:1:1:1:0:0:0:0:0:1
1:1:0:1:0:1:0:0:0:1:0:0:0
1:1:0:0:1:1:0:0:1:1:0:1:0
1:1:0:1:1:1:0:1:0:0:1:0:0
1:1:0:1:0:1:0:1:1:0:1:0:0
0:1:0:0:0:1:1:0:0:1:1:0:1
1:1:0:0:0:1:1:1:0:0:1:1:0
1:1:1:1:0:1:1:0:0:0:0:1:1
1:1:1:0:0:0:0:0:0:1:0:1:0
1:1:0:0:0:1:0:0:0:0:0:1:0
1:1:1:0:0:1:0:0:1:1:0:1:0
1:1:1:0:0:0:1:0:1:0:1:0:0
1:1:1:1:0:1:1:0:0:1:0:1:1
0:1:1:1:0:1:0:0:0:0:0:1:0
1:1:1:0:0:0:1:0:0:1:1:1:0
1:1:0:0:0:0:1:0:0:1:0:1:0
1:1:0:1:0:1:0:0:1:0:1:1:0
1:1:1:0:0:1:1:0:0:0:1:1:0
1:1:0:1:1:1:0:0:0:1:0:1:1
1:1:0:0:1:1:1:1:0:1:0:0:0
1:1:0:0:1:1:0:0:0:1:1:0:0
1:1:0:1:1:1:0:1:1:0:0:0:0
1:1:0:1:0:1:0:1:1:1:0:0:0
1:1:1:1:1:1:0:0:0:1:0:1:0
1:1:1:0:0:1:0:0:0:1:0:0:1
1:1:1:0:1:1:0:1:0:1:0:1:1
1:1:0:1:0:1:1:1:1:0:0:0:0
1:1:1:0:0:0:0:0:0:0:0:0:1
1:1:1:0:1:0:1:0:0:0:0:0:0
1:1:1:0:1:0:0:1:0:0:0:1:1
1:1:0:0:0:1:1:0:0:1:0:0:0
1:1:0:1:0:1:0:1:1:0:0:0:1
1:1:1:1:0:1:1:1:0:1:0:0:0
1:1:1:1:0:1:1:0:1:0:0:1:0
1:1:1:0:0:1:0:0:0:0:0:1:0
1:1:1:1:0:1:1:0:1:0:0:0:0
1:1:1:1:1:1:0:1:0:0:0:1:0
1:1:0:0:0:1:0:1:0:0:0:1:0
1:1:1:1:0:1:0:1:1:0:0:0:0
1:1:0:0:1:1:0:1:0:0:0:0:0
1:1:0:1:0:0:0:1:0:0:0:0:0
1:1:0:0:1:0:0:0:0:0:0:0:1
1:1:1:1:1:1:1:1:0:1:1:1:0
1:1:1:1:1:1:0:0:0:0:0:0:1
1:1:0:0:0:0:0:0:0:0:1:0:1
1:1:1:0:1:0:1:0:0:1:1:0:0
1:1:0:0:0:1:0:1:0:0:1:0:0
1:1:1:0:1:1:0:1:0:0:0:0:1
1:1:1:0:0:1:1:0:1:1:0:0:1
1:1:0:0:0:1:1:0:1:0:0:1:0
1:1:0:0:0:0:1:1:0:1:1:0:0
1:1:1:0:1:1:1:0:0:1:1:1:1
1:1:1:1:0:1:0:1:0:1:1:0:1
1:1:1:0:0:0:0:0:1:0:0:0:1
0:1:0:1:0:1:1:0:0:0:0:1:0
1:1:0:1:0:1:1:0:0:1:0:0:1
1:1:0:1:0:1:1:0:0:0:0:0:0
0:1:1:0:0:1:0:0:0:0:0:1:0
1:1:1:0:1:1:0:0:0:1:1:0:1
1:1:0:1:1:1:1:0:0:1:0:0:1
1:1:1:1:0:1:1:1:1:0:1:1:0
1:1:0:1:0:1:1:1:1:0:0:1:0
0:1:0:1:0:1:0:1:0:1:0:0:0
1:1:0:1:1:1:1:0:0:1:0:1:0
1:1:0:0:0:1:1:0:1:1:0:1:0
1:1:1:0:0:1:0:1:1:0:0:0:0
1:0:0:0:0:0:0:0:0:0:0:0:0
1:1:1:1:1:1:1:0:1:1:1:1:0
1:1:1:1:1:1:0:0:1:1:1:1:1
1:1:1:0:0:1:0:1:0:0:1:0:0
1:1:1:1:0:1:1:0:0:0:0:1:0
1:1:1:0:1:1:0:1:1:0:0:1:1
1:1:0:1:0:1:0:0:0:0:1:1:1
1:1:0:0:0:1:1:1:0:1:1:1:1
1:1:0:0:0:0:0:0:0:1:1:0:1
1:1:0:1:1:1:0:0:0:1:1:0:0
1:1:0:1:0:1:0:0:1:1:1:1:0
1:1:0:1:0:1:0:0:0:0:0:1:1
1:1:1:0:1:1:1:0:0:0:1:1:0
1:1:0:0:0:0:0:1:0:1:0:0:0
1:1:1:0:1:0:0:0:0:1:0:0:0
1:1:1:1:0:1:1:1:0:1:0:1:0
1:1:1:0:0:1:0:0:1:1:0:0:0
1:1:0:1:0:1:1:1:0:0:1:1:0
1:1:1:0:0:0:1:0:0:0:1:0:0
0:1:0:0:1:1:0:0:0:1:0:1:0
1:1:0:0:0:0:0:0:1:0:0:0:1
1:1:1:1:0:1:1:0:0:0:0:0:1
1:1:1:0:0:0:0:0:1:0:1:0:0
1:1:0:0:0:0:0:0:0:0:0:1:1
1:1:0:1:0:1:0:1:0:0:0:1:1
1:1:0:1:0:1:1:1:0:0:0:0:0
0:1:0:0:0:0:1:0:0:0:0:0:0
1:1:0:1:0:1:0:0:1:0:0:1:0
1:1:0:0:0:0:1:0:0:0:0:1:0
1:1:0:0:1:1:1:0:0:1:1:0:1
1:1:1:1:1:1:1:1:0:1:0:1:0
1:1:1:1:0:1:0:0:1:1:0:1:1
1:1:0:1:0:1:1:0:0:0:1:0:1
1:1:0:0:0:1:0:0:1:0:1:0:1
1:1:0:0:0:1:1:1:1:0:0:1:0
1:1:1:0:0:0:1:0:1:1:1:1:0
0:1:0:0:0:0:0:1:0:0:1:1:0
1:1:0:0:0:1:1:1:0:0:0:0:0
1:1:0:1:0:1:0:1:0:1:1:1:1
1:1:0:0:0:1:0:0:0:1:1:0:1
